# device: Cypress-APA-Trackpad-(cyapa)
# bit: 0B 00 00 00 00 00 00 00
# key: 00 00 00 00 00 00 00 00 00 00 00 00 00 00 00 00 00 00 00 00 00 00 00 00 00 00 00 00 00 00 00 00 00 00 01 00 00 00 00 00 20 E5 00 00 00 00 00 00 00 00 00 00 00 00 00 00 00 00 00 00 00 00 00 00 00 00 00 00 00 00 00 00 00 00 00 00 00 00 00 00 00 00 00 00 00 00 00 00 00 00 00 00 00 00 00 00
# rel: 00 00 00 00 00 00 00 00
# abs: 03 00 00 01 00 80 60 06
# led: 00 00 00 00 00 00 00 00
# prp: 05 00 00 00 00 00 00 00
# absinfo: 0 0 1280 0 0 13
# absinfo: 1 0 680 0 0 12
# absinfo: 24 0 255 0 0 0
# absinfo: 47 0 14 0 0 0
# absinfo: 53 0 1280 0 0 13
# absinfo: 54 0 680 0 0 12
# absinfo: 57 0 65535 0 0 0
# absinfo: 58 0 255 0 0 0
E: 1519.108441 0003 002f 0
E: 1519.108441 0003 0030 0
E: 1519.108441 0003 0031 0
E: 1519.108441 0003 0032 0
E: 1519.108441 0003 0033 0
E: 1519.108441 0003 0034 0
E: 1519.108441 0003 0035 917
E: 1519.108441 0003 0036 677
E: 1519.108441 0003 0037 0
E: 1519.108441 0003 0038 0
E: 1519.108441 0003 0039 591
E: 1519.108441 0003 003a 3
E: 1519.108441 0003 003b 0
E: 1519.108441 0003 002f 1
E: 1519.108441 0003 0039 -1
E: 1519.108441 0003 002f 2
E: 1519.108441 0003 0039 -1
E: 1519.108441 0003 002f 3
E: 1519.108441 0003 0039 -1
E: 1519.108441 0003 002f 4
E: 1519.108441 0003 0039 -1
E: 1519.108441 0003 002f 5
E: 1519.108441 0003 0039 -1
E: 1519.108441 0003 002f 6
E: 1519.108441 0003 0039 -1
E: 1519.108441 0003 002f 7
E: 1519.108441 0003 0039 -1
E: 1519.108441 0003 002f 8
E: 1519.108441 0003 0039 -1
E: 1519.108441 0003 002f 9
E: 1519.108441 0003 0039 -1
E: 1519.108441 0003 002f 10
E: 1519.108441 0003 0039 -1
E: 1519.108441 0003 002f 11
E: 1519.108441 0003 0039 -1
E: 1519.108441 0003 002f 12
E: 1519.108441 0003 0039 -1
E: 1519.108441 0003 002f 13
E: 1519.108441 0003 0039 -1
E: 1519.108441 0003 002f 14
E: 1519.108441 0003 0039 -1
E: 1519.108441 0003 002f 0
E: 1519.108441 0001 0145 1
E: 1519.108441 0001 014a 1
E: 1519.108441 0000 0000 0
E: 1519.126667 0003 0035 919
E: 1519.126669 0003 0036 679
E: 1519.126694 0003 0000 919
E: 1519.126696 0003 0001 679
E: 1519.126699 0000 0000 0
E: 1519.136051 0003 0035 918
E: 1519.136055 0003 0036 678
E: 1519.136079 0003 0000 918
E: 1519.136081 0003 0001 678
E: 1519.136084 0000 0000 0
E: 1519.145412 0003 003a 4
E: 1519.145437 0003 0018 4
E: 1519.145440 0000 0000 0
E: 1519.154749 0003 0036 677
E: 1519.154774 0003 0001 677
E: 1519.154778 0000 0000 0
E: 1519.220232 0003 003a 5
E: 1519.220258 0003 0018 5
E: 1519.220261 0000 0000 0
E: 1519.266991 0003 0035 915
E: 1519.266994 0003 0036 679
E: 1519.266996 0003 003a 6
E: 1519.267020 0003 0000 915
E: 1519.267022 0003 0001 679
E: 1519.267024 0003 0018 6
E: 1519.267026 0000 0000 0
E: 1519.285822 0003 0035 913
E: 1519.285825 0003 0036 677
E: 1519.285826 0003 003a 7
E: 1519.285850 0003 0000 913
E: 1519.285853 0003 0001 677
E: 1519.285855 0003 0018 7
E: 1519.285857 0000 0000 0
E: 1519.295254 0003 0035 910
E: 1519.295280 0003 0000 910
E: 1519.295284 0000 0000 0
E: 1519.304736 0003 0036 674
E: 1519.304739 0003 003a 8
E: 1519.304763 0003 0001 674
E: 1519.304765 0003 0018 8
E: 1519.304767 0000 0000 0
E: 1519.333126 0003 0036 675
E: 1519.333152 0003 0001 675
E: 1519.333155 0000 0000 0
E: 1519.370907 0003 0036 672
E: 1519.370933 0003 0001 672
E: 1519.370937 0000 0000 0
E: 1519.380356 0003 0035 908
E: 1519.380359 0003 003a 9
E: 1519.380384 0003 0000 908
E: 1519.380386 0003 0018 9
E: 1519.380389 0000 0000 0
E: 1519.389818 0003 0035 909
E: 1519.389845 0003 0000 909
E: 1519.389849 0000 0000 0
E: 1519.399296 0003 0035 908
E: 1519.399299 0003 0036 670
E: 1519.399300 0003 003a 10
E: 1519.399324 0003 0000 908
E: 1519.399326 0003 0001 670
E: 1519.399328 0003 0018 10
E: 1519.399330 0000 0000 0
E: 1519.445067 0003 0036 668
E: 1519.445092 0003 0001 668
E: 1519.445095 0000 0000 0
E: 1519.462436 0003 0035 907
E: 1519.462440 0003 003a 11
E: 1519.462465 0003 0000 907
E: 1519.462468 0003 0018 11
E: 1519.462470 0000 0000 0
E: 1519.488519 0003 0036 666
E: 1519.488545 0003 0001 666
E: 1519.488548 0000 0000 0
E: 1519.497176 0003 0036 664
E: 1519.497179 0003 003a 12
E: 1519.497203 0003 0001 664
E: 1519.497205 0003 0018 12
E: 1519.497207 0000 0000 0
E: 1519.505884 0003 0036 662
E: 1519.505909 0003 0001 662
E: 1519.505912 0000 0000 0
E: 1519.523292 0003 0036 656
E: 1519.523317 0003 0001 656
E: 1519.523320 0000 0000 0
E: 1519.540710 0003 0036 652
E: 1519.540713 0003 003a 13
E: 1519.540737 0003 0001 652
E: 1519.540739 0003 0018 13
E: 1519.540741 0000 0000 0
E: 1519.566777 0003 0036 650
E: 1519.566802 0003 0001 650
E: 1519.566806 0000 0000 0
E: 1519.575632 0003 0035 906
E: 1519.575636 0003 0036 646
E: 1519.575638 0003 003a 14
E: 1519.575668 0003 0000 906
E: 1519.575671 0003 0001 646
E: 1519.575674 0003 0018 14
E: 1519.575677 0000 0000 0
E: 1519.587470 0003 0036 644
E: 1519.587475 0003 002f 1
E: 1519.587476 0003 0039 592
E: 1519.587479 0003 0035 681
E: 1519.587482 0003 0036 672
E: 1519.587483 0003 003a 2
E: 1519.587504 0001 0145 0
E: 1519.587506 0001 014d 1
E: 1519.587510 0003 0001 644
E: 1519.587514 0000 0000 0
E: 1519.599384 0003 002f 0
E: 1519.599387 0003 0035 904
E: 1519.599389 0003 0036 642
E: 1519.599391 0003 003a 15
E: 1519.599395 0003 002f 1
E: 1519.599396 0003 0035 690
E: 1519.599399 0003 003a 3
E: 1519.599422 0003 0000 904
E: 1519.599424 0003 0001 642
E: 1519.599426 0003 0018 15
E: 1519.599428 0000 0000 0
E: 1519.611272 0003 0035 689
E: 1519.611275 0003 003a 4
E: 1519.611301 0000 0000 0
E: 1519.623193 0003 002f 0
E: 1519.623194 0003 0036 639
E: 1519.623199 0003 002f 1
E: 1519.623200 0003 0035 694
E: 1519.623226 0003 0001 639
E: 1519.623229 0000 0000 0
E: 1519.635054 0003 002f 0
E: 1519.635056 0003 0035 903
E: 1519.635058 0003 0036 637
E: 1519.635086 0003 0000 903
E: 1519.635088 0003 0001 637
E: 1519.635091 0000 0000 0
E: 1519.646947 0003 0035 904
E: 1519.646949 0003 0036 635
E: 1519.646954 0003 002f 1
E: 1519.646955 0003 0035 697
E: 1519.646958 0003 003a 5
E: 1519.646982 0003 0000 904
E: 1519.646984 0003 0001 635
E: 1519.646987 0000 0000 0
E: 1519.682634 0003 002f 0
E: 1519.682636 0003 0036 631
E: 1519.682638 0003 003a 16
E: 1519.682642 0003 002f 1
E: 1519.682643 0003 0035 696
E: 1519.682645 0003 0036 673
E: 1519.682647 0003 003a 6
E: 1519.682670 0003 0001 631
E: 1519.682673 0003 0018 16
E: 1519.682675 0000 0000 0
E: 1519.694585 0003 0035 699
E: 1519.694615 0000 0000 0
E: 1519.718390 0003 0035 698
E: 1519.718419 0000 0000 0
E: 1519.730321 0003 002f 0
E: 1519.730323 0003 0035 903
E: 1519.730328 0003 002f 1
E: 1519.730330 0003 0035 695
E: 1519.730355 0003 0000 903
E: 1519.730359 0000 0000 0
E: 1519.742255 0003 002f 0
E: 1519.742257 0003 0035 904
E: 1519.742259 0003 0036 629
E: 1519.742287 0003 0000 904
E: 1519.742289 0003 0001 629
E: 1519.742293 0000 0000 0
E: 1519.754144 0003 002f 1
E: 1519.754146 0003 0035 698
E: 1519.754173 0000 0000 0
E: 1519.766011 0003 002f 0
E: 1519.766013 0003 0035 903
E: 1519.766015 0003 0036 627
E: 1519.766043 0003 0000 903
E: 1519.766045 0003 0001 627
E: 1519.766048 0000 0000 0
E: 1519.777382 0003 0035 908
E: 1519.777385 0003 0036 615
E: 1519.777390 0003 002f 1
E: 1519.777391 0003 0035 697
E: 1519.777393 0003 003a 7
E: 1519.777417 0003 0000 908
E: 1519.777419 0003 0001 615
E: 1519.777422 0000 0000 0
E: 1519.789335 0003 002f 0
E: 1519.789337 0003 0035 905
E: 1519.789340 0003 0036 620
E: 1519.789342 0003 003a 17
E: 1519.789346 0003 002f 1
E: 1519.789348 0003 0035 703
E: 1519.789350 0003 003a 9
E: 1519.789374 0003 0000 905
E: 1519.789376 0003 0001 620
E: 1519.789378 0003 0018 17
E: 1519.789380 0000 0000 0
E: 1519.800774 0003 002f 0
E: 1519.800776 0003 0035 909
E: 1519.800779 0003 0036 614
E: 1519.800784 0003 002f 1
E: 1519.800785 0003 0036 674
E: 1519.800810 0003 0000 909
E: 1519.800812 0003 0001 614
E: 1519.800815 0000 0000 0
E: 1519.812055 0003 002f 0
E: 1519.812057 0003 0036 615
E: 1519.812059 0003 003a 16
E: 1519.812064 0003 002f 1
E: 1519.812065 0003 0036 675
E: 1519.812089 0003 0001 615
E: 1519.812091 0003 0018 16
E: 1519.812093 0000 0000 0
E: 1519.857418 0003 002f 0
E: 1519.857420 0003 0035 910
E: 1519.857422 0003 0036 614
E: 1519.857427 0003 002f 1
E: 1519.857428 0003 0035 702
E: 1519.857453 0003 0000 910
E: 1519.857455 0003 0001 614
E: 1519.857458 0000 0000 0
E: 1519.880101 0003 002f 0
E: 1519.880103 0003 0036 612
E: 1519.880108 0003 002f 1
E: 1519.880110 0003 0036 674
E: 1519.880134 0003 0001 612
E: 1519.880137 0000 0000 0
E: 1519.891456 0003 002f 0
E: 1519.891458 0003 0036 611
E: 1519.891460 0003 003a 17
E: 1519.891464 0003 002f 1
E: 1519.891465 0003 0035 701
E: 1519.891468 0003 003a 8
E: 1519.891492 0003 0001 611
E: 1519.891494 0003 0018 17
E: 1519.891497 0000 0000 0
E: 1519.914118 0003 002f 0
E: 1519.914120 0003 003a 16
E: 1519.914149 0003 0018 16
E: 1519.914152 0000 0000 0
E: 1519.948098 0003 003a 17
E: 1519.948102 0003 002f 1
E: 1519.948104 0003 0035 702
E: 1519.948106 0003 003a 9
E: 1519.948131 0003 0018 17
E: 1519.948134 0000 0000 0
E: 1519.982116 0003 002f 0
E: 1519.982118 0003 0036 612
E: 1519.982120 0003 003a 16
E: 1519.982148 0003 0001 612
E: 1519.982150 0003 0018 16
E: 1519.982153 0000 0000 0
E: 1519.993428 0003 0035 909
E: 1519.993431 0003 0036 613
E: 1519.993459 0003 0000 909
E: 1519.993462 0003 0001 613
E: 1519.993465 0000 0000 0
E: 1520.004786 0003 0035 910
E: 1520.004789 0003 0036 611
E: 1520.004791 0003 003a 17
E: 1520.004795 0003 002f 1
E: 1520.004797 0003 0036 673
E: 1520.004821 0003 0000 910
E: 1520.004823 0003 0001 611
E: 1520.004825 0003 0018 17
E: 1520.004827 0000 0000 0
E: 1520.016112 0003 002f 0
E: 1520.016114 0003 0035 908
E: 1520.016116 0003 0036 612
E: 1520.016144 0003 0000 908
E: 1520.016146 0003 0001 612
E: 1520.016149 0000 0000 0
E: 1520.027443 0003 002f 1
E: 1520.027445 0003 0035 701
E: 1520.027472 0000 0000 0
E: 1520.038730 0003 002f 0
E: 1520.038732 0003 0036 610
E: 1520.038760 0003 0001 610
E: 1520.038763 0000 0000 0
E: 1520.050093 0003 0035 909
E: 1520.050096 0003 0036 609
E: 1520.050098 0003 003a 16
E: 1520.050102 0003 002f 1
E: 1520.050104 0003 0035 702
E: 1520.050105 0003 0036 675
E: 1520.050107 0003 003a 11
E: 1520.050130 0003 0000 909
E: 1520.050132 0003 0001 609
E: 1520.050134 0003 0018 16
E: 1520.050137 0000 0000 0
E: 1520.061414 0003 002f 0
E: 1520.061416 0003 0035 912
E: 1520.061418 0003 0036 605
E: 1520.061420 0003 003a 17
E: 1520.061424 0003 002f 1
E: 1520.061426 0003 0035 704
E: 1520.061428 0003 003a 12
E: 1520.061451 0003 0000 912
E: 1520.061453 0003 0001 605
E: 1520.061455 0003 0018 17
E: 1520.061457 0000 0000 0
E: 1520.072644 0003 002f 0
E: 1520.072648 0003 0036 602
E: 1520.072651 0003 003a 16
E: 1520.072692 0003 0001 602
E: 1520.072695 0003 0018 16
E: 1520.072698 0000 0000 0
E: 1520.083866 0003 0035 915
E: 1520.083869 0003 0036 598
E: 1520.083871 0003 003a 17
E: 1520.083899 0003 0000 915
E: 1520.083901 0003 0001 598
E: 1520.083903 0003 0018 17
E: 1520.083905 0000 0000 0
E: 1520.095096 0003 003a 16
E: 1520.095127 0003 0018 16
E: 1520.095130 0000 0000 0
E: 1520.106540 0003 0036 595
E: 1520.106546 0003 002f 1
E: 1520.106548 0003 0036 674
E: 1520.106550 0003 003a 13
E: 1520.106575 0003 0001 595
E: 1520.106578 0000 0000 0
E: 1520.129366 0003 002f 0
E: 1520.129369 0003 0035 916
E: 1520.129371 0003 0036 593
E: 1520.129376 0003 002f 1
E: 1520.129377 0003 0035 705
E: 1520.129379 0003 003a 14
E: 1520.129402 0003 0000 916
E: 1520.129404 0003 0001 593
E: 1520.129407 0000 0000 0
E: 1520.152253 0003 002f 0
E: 1520.152256 0003 0035 918
E: 1520.152258 0003 0036 592
E: 1520.152286 0003 0000 918
E: 1520.152288 0003 0001 592
E: 1520.152291 0000 0000 0
E: 1520.163690 0003 0035 917
E: 1520.163694 0003 0036 593
E: 1520.163699 0003 002f 1
E: 1520.163700 0003 0036 673
E: 1520.163725 0003 0000 917
E: 1520.163728 0003 0001 593
E: 1520.163731 0000 0000 0
E: 1520.175090 0003 0036 671
E: 1520.175126 0000 0000 0
E: 1520.186514 0003 002f 0
E: 1520.186516 0003 0035 916
E: 1520.186546 0003 0000 916
E: 1520.186550 0000 0000 0
E: 1520.197919 0003 0035 917
E: 1520.197922 0003 0036 592
E: 1520.197927 0003 002f 1
E: 1520.197929 0003 0035 704
E: 1520.197931 0003 0036 670
E: 1520.197955 0003 0000 917
E: 1520.197957 0003 0001 592
E: 1520.197960 0000 0000 0
E: 1520.209371 0003 002f 0
E: 1520.209373 0003 0036 591
E: 1520.209375 0003 003a 15
E: 1520.209403 0003 0001 591
E: 1520.209405 0003 0018 15
E: 1520.209408 0000 0000 0
E: 1520.220798 0003 0035 919
E: 1520.220802 0003 003a 16
E: 1520.220831 0003 0000 919
E: 1520.220834 0003 0018 16
E: 1520.220836 0000 0000 0
E: 1520.232172 0003 0035 916
E: 1520.232203 0003 0000 916
E: 1520.232207 0000 0000 0
E: 1520.243626 0003 0035 917
E: 1520.243629 0003 0036 592
E: 1520.243635 0003 002f 1
E: 1520.243636 0003 003a 15
E: 1520.243660 0003 0000 917
E: 1520.243661 0003 0001 592
E: 1520.243665 0000 0000 0
E: 1520.255040 0003 002f 0
E: 1520.255042 0003 003a 15
E: 1520.255071 0003 0018 15
E: 1520.255074 0000 0000 0
E: 1520.266471 0003 0035 918
E: 1520.266474 0003 0036 587
E: 1520.266476 0003 003a 17
E: 1520.266481 0003 002f 1
E: 1520.266482 0003 0036 664
E: 1520.266484 0003 003a 16
E: 1520.266507 0003 0000 918
E: 1520.266509 0003 0001 587
E: 1520.266511 0003 0018 17
E: 1520.266514 0000 0000 0
E: 1520.277929 0003 002f 0
E: 1520.277931 0003 0036 581
E: 1520.277937 0003 002f 1
E: 1520.277938 0003 0036 657
E: 1520.277940 0003 003a 17
E: 1520.277965 0003 0001 581
E: 1520.277968 0000 0000 0
E: 1520.289304 0003 002f 0
E: 1520.289306 0003 0036 579
E: 1520.289308 0003 003a 16
E: 1520.289313 0003 002f 1
E: 1520.289314 0003 0035 703
E: 1520.289316 0003 0036 650
E: 1520.289342 0003 0001 579
E: 1520.289344 0003 0018 16
E: 1520.289346 0000 0000 0
E: 1520.300731 0003 002f 0
E: 1520.300733 0003 0036 575
E: 1520.300738 0003 002f 1
E: 1520.300739 0003 0035 704
E: 1520.300741 0003 0036 648
E: 1520.300767 0003 0001 575
E: 1520.300770 0000 0000 0
E: 1520.312180 0003 002f 0
E: 1520.312183 0003 0035 919
E: 1520.312185 0003 0036 572
E: 1520.312187 0003 003a 17
E: 1520.312191 0003 002f 1
E: 1520.312193 0003 0036 636
E: 1520.312195 0003 003a 18
E: 1520.312219 0003 0000 919
E: 1520.312221 0003 0001 572
E: 1520.312223 0003 0018 17
E: 1520.312225 0000 0000 0
E: 1520.323766 0003 002f 0
E: 1520.323769 0003 0036 569
E: 1520.323771 0003 003a 16
E: 1520.323776 0003 002f 1
E: 1520.323777 0003 0036 631
E: 1520.323802 0003 0001 569
E: 1520.323805 0003 0018 16
E: 1520.323807 0000 0000 0
E: 1520.335335 0003 002f 0
E: 1520.335337 0003 0035 921
E: 1520.335339 0003 0036 568
E: 1520.335341 0003 003a 17
E: 1520.335346 0003 002f 1
E: 1520.335347 0003 0035 705
E: 1520.335349 0003 0036 626
E: 1520.335351 0003 003a 19
E: 1520.335375 0003 0000 921
E: 1520.335377 0003 0001 568
E: 1520.335379 0003 0018 17
E: 1520.335381 0000 0000 0
E: 1520.346911 0003 002f 0
E: 1520.346913 0003 0036 564
E: 1520.346918 0003 002f 1
E: 1520.346920 0003 0035 706
E: 1520.346921 0003 0036 622
E: 1520.346947 0003 0001 564
E: 1520.346950 0000 0000 0
E: 1520.358498 0003 0035 704
E: 1520.358502 0003 0036 621
E: 1520.358504 0003 003a 18
E: 1520.358530 0000 0000 0
E: 1520.370096 0003 002f 0
E: 1520.370098 0003 0035 922
E: 1520.370100 0003 0036 563
E: 1520.370129 0003 0000 922
E: 1520.370131 0003 0001 563
E: 1520.370134 0000 0000 0
E: 1520.381655 0003 0035 923
E: 1520.381658 0003 003a 18
E: 1520.381685 0003 0000 923
E: 1520.381688 0003 0018 18
E: 1520.381690 0000 0000 0
E: 1520.393270 0003 003a 17
E: 1520.393300 0003 0018 17
E: 1520.393303 0000 0000 0
E: 1520.404858 0003 0035 922
E: 1520.404861 0003 0036 564
E: 1520.404865 0003 002f 1
E: 1520.404867 0003 0035 705
E: 1520.404892 0003 0000 922
E: 1520.404894 0003 0001 564
E: 1520.404897 0000 0000 0
E: 1520.428009 0003 002f 0
E: 1520.428011 0003 0036 562
E: 1520.428013 0003 003a 16
E: 1520.428040 0003 0001 562
E: 1520.428042 0003 0018 16
E: 1520.428044 0000 0000 0
E: 1520.439643 0003 002f 1
E: 1520.439645 0003 0035 706
E: 1520.439647 0003 0036 616
E: 1520.439649 0003 003a 19
E: 1520.439676 0000 0000 0
E: 1520.451282 0003 002f 0
E: 1520.451284 0003 003a 17
E: 1520.451289 0003 002f 1
E: 1520.451290 0003 0036 614
E: 1520.451316 0003 0018 17
E: 1520.451318 0000 0000 0
E: 1520.462847 0003 002f 0
E: 1520.462850 0003 0036 563
E: 1520.462856 0003 002f 1
E: 1520.462857 0003 0036 615
E: 1520.462882 0003 0001 563
E: 1520.462885 0000 0000 0
E: 1520.474468 0003 002f 0
E: 1520.474470 0003 0035 923
E: 1520.474472 0003 0036 562
E: 1520.474501 0003 0000 923
E: 1520.474504 0003 0001 562
E: 1520.474507 0000 0000 0
E: 1520.486106 0003 0036 561
E: 1520.486113 0003 002f 1
E: 1520.486114 0003 0036 614
E: 1520.486138 0003 0001 561
E: 1520.486141 0000 0000 0
E: 1520.497241 0003 002f 0
E: 1520.497243 0003 0035 925
E: 1520.497245 0003 0036 558
E: 1520.497247 0003 003a 18
E: 1520.497251 0003 002f 1
E: 1520.497252 0003 0035 708
E: 1520.497254 0003 0036 607
E: 1520.497278 0003 0000 925
E: 1520.497280 0003 0001 558
E: 1520.497282 0003 0018 18
E: 1520.497284 0000 0000 0
E: 1520.508314 0003 002f 0
E: 1520.508316 0003 0035 924
E: 1520.508319 0003 0036 557
E: 1520.508321 0003 003a 17
E: 1520.508325 0003 002f 1
E: 1520.508327 0003 0036 605
E: 1520.508329 0003 003a 18
E: 1520.508353 0003 0000 924
E: 1520.508355 0003 0001 557
E: 1520.508357 0003 0018 17
E: 1520.508360 0000 0000 0
E: 1520.519607 0003 002f 0
E: 1520.519608 0003 0035 925
E: 1520.519611 0003 0036 555
E: 1520.519639 0003 0000 925
E: 1520.519641 0003 0001 555
E: 1520.519644 0000 0000 0
E: 1520.530830 0003 002f 1
E: 1520.530832 0003 0035 709
E: 1520.530834 0003 0036 603
E: 1520.530836 0003 003a 19
E: 1520.530862 0000 0000 0
E: 1520.542868 0003 002f 0
E: 1520.542870 0003 0035 926
E: 1520.542872 0003 0036 553
E: 1520.542901 0003 0000 926
E: 1520.542903 0003 0001 553
E: 1520.542906 0000 0000 0
E: 1520.554874 0003 0036 552
E: 1520.554906 0003 0001 552
E: 1520.554909 0000 0000 0
E: 1520.566932 0003 002f 1
E: 1520.566934 0003 003a 20
E: 1520.566974 0000 0000 0
E: 1520.578978 0003 002f 0
E: 1520.578980 0003 0035 925
E: 1520.578982 0003 0036 553
E: 1520.579011 0003 0000 925
E: 1520.579013 0003 0001 553
E: 1520.579016 0000 0000 0
E: 1520.590987 0003 0036 552
E: 1520.590993 0003 002f 1
E: 1520.590995 0003 0036 602
E: 1520.590997 0003 003a 19
E: 1520.591020 0003 0001 552
E: 1520.591024 0000 0000 0
E: 1520.615044 0003 002f 0
E: 1520.615046 0003 0035 926
E: 1520.615075 0003 0000 926
E: 1520.615079 0000 0000 0
E: 1520.627060 0003 0035 927
E: 1520.627063 0003 0036 553
E: 1520.627065 0003 003a 18
E: 1520.627092 0003 0000 927
E: 1520.627094 0003 0001 553
E: 1520.627096 0003 0018 18
E: 1520.627098 0000 0000 0
E: 1520.639109 0003 002f 1
E: 1520.639111 0003 0035 710
E: 1520.639113 0003 0036 601
E: 1520.639139 0000 0000 0
E: 1520.651152 0003 002f 0
E: 1520.651153 0003 0035 926
E: 1520.651155 0003 0036 554
E: 1520.651157 0003 003a 17
E: 1520.651185 0003 0000 926
E: 1520.651187 0003 0001 554
E: 1520.651188 0003 0018 17
E: 1520.651191 0000 0000 0
E: 1520.663206 0003 002f 1
E: 1520.663208 0003 0035 709
E: 1520.663210 0003 0036 602
E: 1520.663237 0000 0000 0
E: 1520.675198 0003 002f 0
E: 1520.675200 0003 0036 553
E: 1520.675228 0003 0001 553
E: 1520.675231 0000 0000 0
E: 1520.687201 0003 0036 552
E: 1520.687230 0003 0001 552
E: 1520.687233 0000 0000 0
E: 1520.699254 0003 002f 1
E: 1520.699256 0003 0035 710
E: 1520.699258 0003 0036 601
E: 1520.699284 0000 0000 0
E: 1520.723335 0003 002f 0
E: 1520.723338 0003 0035 927
E: 1520.723341 0003 003a 16
E: 1520.723345 0003 002f 1
E: 1520.723347 0003 0035 709
E: 1520.723371 0003 0000 927
E: 1520.723375 0003 0018 16
E: 1520.723377 0000 0000 0
E: 1520.735371 0003 002f 0
E: 1520.735374 0003 0036 553
E: 1520.735376 0003 003a 17
E: 1520.735404 0003 0001 553
E: 1520.735407 0003 0018 17
E: 1520.735409 0000 0000 0
E: 1520.759306 0003 0035 926
E: 1520.759309 0003 0036 548
E: 1520.759314 0003 002f 1
E: 1520.759315 0003 0035 710
E: 1520.759317 0003 0036 598
E: 1520.759343 0003 0000 926
E: 1520.759345 0003 0001 548
E: 1520.759348 0000 0000 0
E: 1520.771256 0003 002f 0
E: 1520.771258 0003 0035 930
E: 1520.771260 0003 0036 542
E: 1520.771262 0003 003a 16
E: 1520.771267 0003 002f 1
E: 1520.771268 0003 0036 592
E: 1520.771270 0003 003a 18
E: 1520.771293 0003 0000 930
E: 1520.771296 0003 0001 542
E: 1520.771297 0003 0018 16
E: 1520.771300 0000 0000 0
E: 1520.782884 0003 002f 0
E: 1520.782886 0003 0036 539
E: 1520.782888 0003 003a 17
E: 1520.782892 0003 002f 1
E: 1520.782894 0003 0035 711
E: 1520.782896 0003 0036 585
E: 1520.782898 0003 003a 17
E: 1520.782921 0003 0001 539
E: 1520.782923 0003 0018 17
E: 1520.782926 0000 0000 0
E: 1520.794531 0003 002f 0
E: 1520.794534 0003 0035 932
E: 1520.794535 0003 0036 535
E: 1520.794537 0003 003a 16
E: 1520.794542 0003 002f 1
E: 1520.794543 0003 0036 579
E: 1520.794568 0003 0000 932
E: 1520.794570 0003 0001 535
E: 1520.794572 0003 0018 16
E: 1520.794574 0000 0000 0
E: 1520.806147 0003 002f 0
E: 1520.806149 0003 0035 933
E: 1520.806151 0003 0036 533
E: 1520.806156 0003 002f 1
E: 1520.806157 0003 0035 712
E: 1520.806159 0003 0036 576
E: 1520.806184 0003 0000 933
E: 1520.806186 0003 0001 533
E: 1520.806190 0000 0000 0
E: 1520.817724 0003 002f 0
E: 1520.817727 0003 0035 936
E: 1520.817729 0003 0036 529
E: 1520.817730 0003 003a 17
E: 1520.817735 0003 002f 1
E: 1520.817736 0003 0035 714
E: 1520.817738 0003 0036 569
E: 1520.817740 0003 003a 18
E: 1520.817764 0003 0000 936
E: 1520.817766 0003 0001 529
E: 1520.817768 0003 0018 17
E: 1520.817770 0000 0000 0
E: 1520.829243 0003 002f 0
E: 1520.829246 0003 0035 937
E: 1520.829251 0003 002f 1
E: 1520.829252 0003 0035 715
E: 1520.829277 0003 0000 937
E: 1520.829281 0000 0000 0
E: 1520.840698 0003 002f 0
E: 1520.840700 0003 0036 525
E: 1520.840705 0003 002f 1
E: 1520.840707 0003 0036 565
E: 1520.840731 0003 0001 525
E: 1520.840734 0000 0000 0
E: 1520.852179 0003 002f 0
E: 1520.852181 0003 0036 524
E: 1520.852210 0003 0001 524
E: 1520.852213 0000 0000 0
E: 1520.863697 0003 0036 523
E: 1520.863704 0003 002f 1
E: 1520.863705 0003 0036 564
E: 1520.863707 0003 003a 19
E: 1520.863732 0003 0001 523
E: 1520.863735 0000 0000 0
E: 1520.875179 0003 002f 0
E: 1520.875181 0003 0035 936
E: 1520.875183 0003 0036 522
E: 1520.875212 0003 0000 936
E: 1520.875214 0003 0001 522
E: 1520.875217 0000 0000 0
E: 1520.886666 0003 0035 937
E: 1520.886668 0003 0036 518
E: 1520.886674 0003 002f 1
E: 1520.886675 0003 0036 559
E: 1520.886699 0003 0000 937
E: 1520.886701 0003 0001 518
E: 1520.886704 0000 0000 0
E: 1520.898219 0003 002f 0
E: 1520.898221 0003 0035 936
E: 1520.898226 0003 002f 1
E: 1520.898228 0003 0035 717
E: 1520.898230 0003 0036 558
E: 1520.898232 0003 003a 20
E: 1520.898256 0003 0000 936
E: 1520.898260 0000 0000 0
E: 1520.909711 0003 002f 0
E: 1520.909713 0003 0035 937
E: 1520.909715 0003 0036 517
E: 1520.909717 0003 003a 18
E: 1520.909722 0003 002f 1
E: 1520.909723 0003 0036 555
E: 1520.909725 0003 003a 21
E: 1520.909749 0003 0000 937
E: 1520.909751 0003 0001 517
E: 1520.909753 0003 0018 18
E: 1520.909755 0000 0000 0
E: 1520.921242 0003 002f 0
E: 1520.921245 0003 0035 936
E: 1520.921247 0003 0036 518
E: 1520.921276 0003 0000 936
E: 1520.921278 0003 0001 518
E: 1520.921281 0000 0000 0
E: 1520.932742 0003 002f 1
E: 1520.932744 0003 0036 554
E: 1520.932770 0000 0000 0
E: 1520.944283 0003 002f 0
E: 1520.944284 0003 0035 937
E: 1520.944286 0003 0036 515
E: 1520.944288 0003 003a 17
E: 1520.944294 0003 002f 1
E: 1520.944295 0003 003a 20
E: 1520.944318 0003 0000 937
E: 1520.944320 0003 0001 515
E: 1520.944322 0003 0018 17
E: 1520.944324 0000 0000 0
E: 1520.955902 0003 002f 0
E: 1520.955905 0003 0035 938
E: 1520.955934 0003 0000 938
E: 1520.955938 0000 0000 0
E: 1520.967452 0003 0036 514
E: 1520.967483 0003 0001 514
E: 1520.967486 0000 0000 0
E: 1521.002219 0003 0036 516
E: 1521.002222 0003 003a 16
E: 1521.002251 0003 0001 516
E: 1521.002253 0003 0018 16
E: 1521.002255 0000 0000 0
E: 1521.013796 0003 0035 937
E: 1521.013798 0003 0036 513
E: 1521.013800 0003 003a 17
E: 1521.013828 0003 0000 937
E: 1521.013830 0003 0001 513
E: 1521.013832 0003 0018 17
E: 1521.013834 0000 0000 0
E: 1521.025469 0003 0036 510
E: 1521.025476 0003 002f 1
E: 1521.025477 0003 0036 552
E: 1521.025503 0003 0001 510
E: 1521.025506 0000 0000 0
E: 1521.037159 0003 002f 0
E: 1521.037160 0003 0035 943
E: 1521.037163 0003 0036 500
E: 1521.037168 0003 002f 1
E: 1521.037170 0003 0036 546
E: 1521.037193 0003 0000 943
E: 1521.037195 0003 0001 500
E: 1521.037198 0000 0000 0
E: 1521.048526 0003 002f 0
E: 1521.048528 0003 0035 941
E: 1521.048530 0003 0036 497
E: 1521.048532 0003 003a 18
E: 1521.048536 0003 002f 1
E: 1521.048537 0003 0035 720
E: 1521.048539 0003 0036 541
E: 1521.048564 0003 0000 941
E: 1521.048566 0003 0001 497
E: 1521.048569 0003 0018 18
E: 1521.048571 0000 0000 0
E: 1521.059882 0003 002f 0
E: 1521.059884 0003 0035 942
E: 1521.059886 0003 0036 496
E: 1521.059891 0003 002f 1
E: 1521.059892 0003 0035 722
E: 1521.059894 0003 0036 539
E: 1521.059919 0003 0000 942
E: 1521.059921 0003 0001 496
E: 1521.059924 0000 0000 0
E: 1521.071274 0003 002f 0
E: 1521.071276 0003 0035 940
E: 1521.071278 0003 0036 492
E: 1521.071281 0003 003a 19
E: 1521.071285 0003 002f 1
E: 1521.071286 0003 0035 723
E: 1521.071288 0003 0036 536
E: 1521.071290 0003 003a 21
E: 1521.071313 0003 0000 940
E: 1521.071315 0003 0001 492
E: 1521.071317 0003 0018 19
E: 1521.071320 0000 0000 0
E: 1521.082527 0003 002f 0
E: 1521.082529 0003 0035 943
E: 1521.082531 0003 0036 490
E: 1521.082533 0003 003a 20
E: 1521.082538 0003 002f 1
E: 1521.082539 0003 0036 532
E: 1521.082541 0003 003a 22
E: 1521.082565 0003 0000 943
E: 1521.082567 0003 0001 490
E: 1521.082569 0003 0018 20
E: 1521.082571 0000 0000 0
E: 1521.093663 0003 002f 0
E: 1521.093665 0003 0036 487
E: 1521.093670 0003 002f 1
E: 1521.093671 0003 0035 724
E: 1521.093674 0003 0036 529
E: 1521.093676 0003 003a 21
E: 1521.093700 0003 0001 487
E: 1521.093703 0000 0000 0
E: 1521.104970 0003 002f 0
E: 1521.104972 0003 0035 944
E: 1521.104974 0003 0036 486
E: 1521.104979 0003 002f 1
E: 1521.104981 0003 0035 725
E: 1521.104983 0003 0036 526
E: 1521.105029 0003 0000 944
E: 1521.105031 0003 0001 486
E: 1521.105035 0000 0000 0
E: 1521.116266 0003 002f 0
E: 1521.116268 0003 0035 945
E: 1521.116270 0003 0036 480
E: 1521.116272 0003 003a 19
E: 1521.116276 0003 002f 1
E: 1521.116277 0003 0035 724
E: 1521.116279 0003 0036 523
E: 1521.116281 0003 003a 19
E: 1521.116304 0003 0000 945
E: 1521.116306 0003 0001 480
E: 1521.116308 0003 0018 19
E: 1521.116310 0000 0000 0
E: 1521.127716 0003 002f 0
E: 1521.127719 0003 0035 947
E: 1521.127721 0003 0036 478
E: 1521.127723 0003 003a 20
E: 1521.127727 0003 002f 1
E: 1521.127728 0003 0035 725
E: 1521.127730 0003 0036 519
E: 1521.127755 0003 0000 947
E: 1521.127757 0003 0001 478
E: 1521.127759 0003 0018 20
E: 1521.127761 0000 0000 0
E: 1521.139156 0003 002f 0
E: 1521.139158 0003 0035 948
E: 1521.139161 0003 0036 475
E: 1521.139162 0003 003a 21
E: 1521.139167 0003 002f 1
E: 1521.139169 0003 0036 516
E: 1521.139171 0003 003a 20
E: 1521.139194 0003 0000 948
E: 1521.139197 0003 0001 475
E: 1521.139199 0003 0018 21
E: 1521.139201 0000 0000 0
E: 1521.150609 0003 002f 0
E: 1521.150611 0003 0035 949
E: 1521.150613 0003 0036 473
E: 1521.150615 0003 003a 20
E: 1521.150619 0003 002f 1
E: 1521.150621 0003 0035 726
E: 1521.150623 0003 0036 513
E: 1521.150647 0003 0000 949
E: 1521.150649 0003 0001 473
E: 1521.150651 0003 0018 20
E: 1521.150654 0000 0000 0
E: 1521.162027 0003 002f 0
E: 1521.162030 0003 0036 470
E: 1521.162035 0003 002f 1
E: 1521.162036 0003 0035 727
E: 1521.162038 0003 0036 508
E: 1521.162040 0003 003a 19
E: 1521.162065 0003 0001 470
E: 1521.162068 0000 0000 0
E: 1521.173430 0003 002f 0
E: 1521.173433 0003 0035 947
E: 1521.173435 0003 0036 467
E: 1521.173440 0003 002f 1
E: 1521.173441 0003 0035 726
E: 1521.173443 0003 0036 501
E: 1521.173445 0003 003a 20
E: 1521.173469 0003 0000 947
E: 1521.173471 0003 0001 467
E: 1521.173474 0000 0000 0
E: 1521.184877 0003 002f 0
E: 1521.184880 0003 0035 948
E: 1521.184882 0003 0036 464
E: 1521.184884 0003 003a 19
E: 1521.184888 0003 002f 1
E: 1521.184890 0003 0035 725
E: 1521.184892 0003 0036 499
E: 1521.184916 0003 0000 948
E: 1521.184918 0003 0001 464
E: 1521.184920 0003 0018 19
E: 1521.184922 0000 0000 0
E: 1521.196304 0003 002f 0
E: 1521.196306 0003 0035 949
E: 1521.196308 0003 0036 461
E: 1521.196310 0003 003a 20
E: 1521.196314 0003 002f 1
E: 1521.196316 0003 0035 726
E: 1521.196318 0003 0036 495
E: 1521.196342 0003 0000 949
E: 1521.196344 0003 0001 461
E: 1521.196346 0003 0018 20
E: 1521.196349 0000 0000 0
E: 1521.207664 0003 002f 0
E: 1521.207667 0003 0035 948
E: 1521.207669 0003 0036 459
E: 1521.207671 0003 003a 19
E: 1521.207676 0003 002f 1
E: 1521.207677 0003 0036 493
E: 1521.207701 0003 0000 948
E: 1521.207703 0003 0001 459
E: 1521.207705 0003 0018 19
E: 1521.207708 0000 0000 0
E: 1521.219115 0003 002f 0
E: 1521.219117 0003 0035 947
E: 1521.219119 0003 0036 456
E: 1521.219121 0003 003a 20
E: 1521.219125 0003 002f 1
E: 1521.219127 0003 0035 724
E: 1521.219128 0003 0036 487
E: 1521.219130 0003 003a 22
E: 1521.219155 0003 0000 947
E: 1521.219157 0003 0001 456
E: 1521.219159 0003 0018 20
E: 1521.219161 0000 0000 0
E: 1521.230678 0003 002f 0
E: 1521.230680 0003 0036 446
E: 1521.230685 0003 002f 1
E: 1521.230686 0003 0035 723
E: 1521.230689 0003 0036 483
E: 1521.230714 0003 0001 446
E: 1521.230718 0000 0000 0
E: 1521.242226 0003 002f 0
E: 1521.242228 0003 0035 949
E: 1521.242230 0003 0036 440
E: 1521.242232 0003 003a 19
E: 1521.242236 0003 002f 1
E: 1521.242238 0003 0035 724
E: 1521.242240 0003 0036 476
E: 1521.242241 0003 003a 21
E: 1521.242265 0003 0000 949
E: 1521.242267 0003 0001 440
E: 1521.242269 0003 0018 19
E: 1521.242272 0000 0000 0
E: 1521.253816 0003 002f 0
E: 1521.253818 0003 0036 433
E: 1521.253820 0003 003a 20
E: 1521.253824 0003 002f 1
E: 1521.253826 0003 0035 726
E: 1521.253828 0003 0036 471
E: 1521.253830 0003 003a 22
E: 1521.253855 0003 0001 433
E: 1521.253857 0003 0018 20
E: 1521.253860 0000 0000 0
E: 1521.264959 0003 002f 0
E: 1521.264962 0003 0035 948
E: 1521.264964 0003 0036 426
E: 1521.264969 0003 002f 1
E: 1521.264971 0003 0036 463
E: 1521.264995 0003 0000 948
E: 1521.264997 0003 0001 426
E: 1521.265001 0000 0000 0
E: 1521.276080 0003 002f 0
E: 1521.276083 0003 0036 420
E: 1521.276085 0003 003a 21
E: 1521.276089 0003 002f 1
E: 1521.276090 0003 0035 725
E: 1521.276092 0003 0036 460
E: 1521.276118 0003 0001 420
E: 1521.276120 0003 0018 21
E: 1521.276122 0000 0000 0
E: 1521.287401 0003 002f 0
E: 1521.287404 0003 0035 946
E: 1521.287406 0003 0036 415
E: 1521.287411 0003 002f 1
E: 1521.287412 0003 0035 727
E: 1521.287414 0003 0036 446
E: 1521.287416 0003 003a 20
E: 1521.287440 0003 0000 946
E: 1521.287442 0003 0001 415
E: 1521.287445 0000 0000 0
E: 1521.298863 0003 002f 0
E: 1521.298865 0003 0035 944
E: 1521.298867 0003 0036 410
E: 1521.298869 0003 003a 20
E: 1521.298874 0003 002f 1
E: 1521.298875 0003 0036 441
E: 1521.298877 0003 003a 22
E: 1521.298901 0003 0000 944
E: 1521.298903 0003 0001 410
E: 1521.298905 0003 0018 20
E: 1521.298907 0000 0000 0
E: 1521.310274 0003 002f 0
E: 1521.310277 0003 0035 945
E: 1521.310279 0003 0036 403
E: 1521.310281 0003 003a 21
E: 1521.310286 0003 002f 1
E: 1521.310287 0003 0036 425
E: 1521.310289 0003 003a 23
E: 1521.310313 0003 0000 945
E: 1521.310315 0003 0001 403
E: 1521.310317 0003 0018 21
E: 1521.310320 0000 0000 0
E: 1521.321829 0003 002f 0
E: 1521.321831 0003 0035 947
E: 1521.321834 0003 0036 397
E: 1521.321838 0003 002f 1
E: 1521.321840 0003 0035 728
E: 1521.321841 0003 0036 417
E: 1521.321866 0003 0000 947
E: 1521.321868 0003 0001 397
E: 1521.321872 0000 0000 0
E: 1521.333441 0003 002f 0
E: 1521.333444 0003 0036 389
E: 1521.333446 0003 003a 20
E: 1521.333450 0003 002f 1
E: 1521.333451 0003 0035 726
E: 1521.333454 0003 0036 409
E: 1521.333455 0003 003a 24
E: 1521.333481 0003 0001 389
E: 1521.333483 0003 0018 20
E: 1521.333485 0000 0000 0
E: 1521.345072 0003 002f 0
E: 1521.345074 0003 0035 951
E: 1521.345076 0003 0036 379
E: 1521.345081 0003 002f 1
E: 1521.345083 0003 0035 727
E: 1521.345084 0003 0036 401
E: 1521.345086 0003 003a 23
E: 1521.345111 0003 0000 951
E: 1521.345113 0003 0001 379
E: 1521.345116 0000 0000 0
E: 1521.356378 0003 002f 0
E: 1521.356380 0003 0035 948
E: 1521.356382 0003 0036 370
E: 1521.356384 0003 003a 21
E: 1521.356388 0003 002f 1
E: 1521.356390 0003 0035 729
E: 1521.356392 0003 0036 395
E: 1521.356417 0003 0000 948
E: 1521.356419 0003 0001 370
E: 1521.356421 0003 0018 21
E: 1521.356423 0000 0000 0
E: 1521.367708 0003 002f 0
E: 1521.367711 0003 0036 360
E: 1521.367720 0003 002f 1
E: 1521.367722 0003 0036 385
E: 1521.367764 0003 0001 360
E: 1521.367769 0000 0000 0
E: 1521.379049 0003 002f 0
E: 1521.379052 0003 0035 949
E: 1521.379054 0003 0036 353
E: 1521.379060 0003 002f 1
E: 1521.379061 0003 0036 377
E: 1521.379063 0003 003a 22
E: 1521.379087 0003 0000 949
E: 1521.379089 0003 0001 353
E: 1521.379093 0000 0000 0
E: 1521.390663 0003 002f 0
E: 1521.390666 0003 0035 950
E: 1521.390668 0003 0036 346
E: 1521.390670 0003 003a 22
E: 1521.390675 0003 002f 1
E: 1521.390676 0003 0036 360
E: 1521.390678 0003 003a 23
E: 1521.390702 0003 0000 950
E: 1521.390704 0003 0001 346
E: 1521.390706 0003 0018 22
E: 1521.390708 0000 0000 0
E: 1521.402116 0003 002f 0
E: 1521.402118 0003 0035 951
E: 1521.402120 0003 0036 338
E: 1521.402125 0003 002f 1
E: 1521.402127 0003 0035 727
E: 1521.402129 0003 0036 353
E: 1521.402153 0003 0000 951
E: 1521.402155 0003 0001 338
E: 1521.402159 0000 0000 0
E: 1521.413716 0003 002f 0
E: 1521.413718 0003 0036 334
E: 1521.413724 0003 002f 1
E: 1521.413725 0003 0036 345
E: 1521.413727 0003 003a 24
E: 1521.413752 0003 0001 334
E: 1521.413755 0000 0000 0
E: 1521.425417 0003 002f 0
E: 1521.425419 0003 0035 952
E: 1521.425421 0003 0036 328
E: 1521.425426 0003 002f 1
E: 1521.425427 0003 0035 728
E: 1521.425429 0003 0036 338
E: 1521.425431 0003 003a 25
E: 1521.425455 0003 0000 952
E: 1521.425457 0003 0001 328
E: 1521.425460 0000 0000 0
E: 1521.436891 0003 002f 0
E: 1521.436893 0003 0036 322
E: 1521.436898 0003 002f 1
E: 1521.436899 0003 0035 731
E: 1521.436901 0003 0036 332
E: 1521.436903 0003 003a 24
E: 1521.436928 0003 0001 322
E: 1521.436931 0000 0000 0
E: 1521.448219 0003 002f 0
E: 1521.448221 0003 0035 951
E: 1521.448223 0003 0036 314
E: 1521.448228 0003 002f 1
E: 1521.448229 0003 0035 732
E: 1521.448231 0003 0036 326
E: 1521.448256 0003 0000 951
E: 1521.448258 0003 0001 314
E: 1521.448261 0000 0000 0
E: 1521.459608 0003 002f 0
E: 1521.459610 0003 0035 954
E: 1521.459612 0003 0036 305
E: 1521.459614 0003 003a 21
E: 1521.459618 0003 002f 1
E: 1521.459619 0003 0035 735
E: 1521.459621 0003 0036 317
E: 1521.459623 0003 003a 21
E: 1521.459647 0003 0000 954
E: 1521.459649 0003 0001 305
E: 1521.459651 0003 0018 21
E: 1521.459653 0000 0000 0
E: 1521.470970 0003 002f 0
E: 1521.470972 0003 0035 957
E: 1521.470974 0003 0036 294
E: 1521.470976 0003 003a 23
E: 1521.470980 0003 002f 1
E: 1521.470982 0003 0035 737
E: 1521.470984 0003 0036 305
E: 1521.470985 0003 003a 22
E: 1521.471009 0003 0000 957
E: 1521.471012 0003 0001 294
E: 1521.471014 0003 0018 23
E: 1521.471016 0000 0000 0
E: 1521.482302 0003 002f 0
E: 1521.482305 0003 0035 958
E: 1521.482307 0003 0036 288
E: 1521.482312 0003 002f 1
E: 1521.482313 0003 0035 738
E: 1521.482315 0003 0036 297
E: 1521.482340 0003 0000 958
E: 1521.482342 0003 0001 288
E: 1521.482345 0000 0000 0
E: 1521.493821 0003 002f 0
E: 1521.493824 0003 0035 957
E: 1521.493826 0003 0036 283
E: 1521.493831 0003 002f 1
E: 1521.493832 0003 0036 288
E: 1521.493857 0003 0000 957
E: 1521.493859 0003 0001 283
E: 1521.493863 0000 0000 0
E: 1521.505538 0003 002f 0
E: 1521.505541 0003 0035 958
E: 1521.505543 0003 0036 278
E: 1521.505545 0003 003a 24
E: 1521.505550 0003 002f 1
E: 1521.505551 0003 0036 282
E: 1521.505553 0003 003a 24
E: 1521.505577 0003 0000 958
E: 1521.505579 0003 0001 278
E: 1521.505581 0003 0018 24
E: 1521.505584 0000 0000 0
E: 1521.517226 0003 002f 0
E: 1521.517228 0003 0035 960
E: 1521.517231 0003 0036 273
E: 1521.517233 0003 003a 23
E: 1521.517237 0003 002f 1
E: 1521.517238 0003 0035 739
E: 1521.517240 0003 0036 278
E: 1521.517265 0003 0000 960
E: 1521.517267 0003 0001 273
E: 1521.517269 0003 0018 23
E: 1521.517272 0000 0000 0
E: 1521.528906 0003 002f 0
E: 1521.528909 0003 0035 962
E: 1521.528911 0003 0036 269
E: 1521.528913 0003 003a 24
E: 1521.528918 0003 002f 1
E: 1521.528919 0003 0035 741
E: 1521.528921 0003 0036 274
E: 1521.528923 0003 003a 25
E: 1521.528946 0003 0000 962
E: 1521.528948 0003 0001 269
E: 1521.528950 0003 0018 24
E: 1521.528953 0000 0000 0
E: 1521.540525 0003 002f 0
E: 1521.540527 0003 0036 267
E: 1521.540530 0003 003a 23
E: 1521.540534 0003 002f 1
E: 1521.540536 0003 0036 272
E: 1521.540538 0003 003a 24
E: 1521.540562 0003 0001 267
E: 1521.540564 0003 0018 23
E: 1521.540566 0000 0000 0
E: 1521.563692 0003 002f 0
E: 1521.563694 0003 003a 22
E: 1521.563699 0003 002f 1
E: 1521.563700 0003 0036 271
E: 1521.563702 0003 003a 23
E: 1521.563726 0003 0018 22
E: 1521.563729 0000 0000 0
E: 1521.575253 0003 002f 0
E: 1521.575254 0003 0035 963
E: 1521.575257 0003 003a 23
E: 1521.575262 0003 002f 1
E: 1521.575263 0003 0035 742
E: 1521.575265 0003 003a 22
E: 1521.575289 0003 0000 963
E: 1521.575292 0003 0018 23
E: 1521.575294 0000 0000 0
E: 1521.586848 0003 002f 0
E: 1521.586851 0003 003a 22
E: 1521.586855 0003 002f 1
E: 1521.586856 0003 0035 743
E: 1521.586858 0003 0036 272
E: 1521.586861 0003 003a 21
E: 1521.586886 0003 0018 22
E: 1521.586888 0000 0000 0
E: 1521.598395 0003 002f 0
E: 1521.598397 0003 0035 962
E: 1521.598399 0003 0036 266
E: 1521.598401 0003 003a 21
E: 1521.598405 0003 002f 1
E: 1521.598406 0003 0035 742
E: 1521.598408 0003 0036 274
E: 1521.598410 0003 003a 18
E: 1521.598433 0003 0000 962
E: 1521.598435 0003 0001 266
E: 1521.598437 0003 0018 21
E: 1521.598440 0000 0000 0
E: 1521.609999 0003 002f 0
E: 1521.610001 0003 0035 963
E: 1521.610033 0003 003a 20
E: 1521.610042 0003 002f 1
E: 1521.610045 0003 0035 745
E: 1521.610047 0003 0036 275
E: 1521.610049 0003 003a 15
E: 1521.610074 0003 0000 963
E: 1521.610076 0003 0018 20
E: 1521.610079 0000 0000 0
E: 1521.621545 0003 002f 0
E: 1521.621547 0003 003a 17
E: 1521.621551 0003 002f 1
E: 1521.621552 0003 0035 743
E: 1521.621554 0003 0036 278
E: 1521.621556 0003 003a 10
E: 1521.621582 0003 0018 17
E: 1521.621584 0000 0000 0
E: 1521.630973 0003 002f 0
E: 1521.630975 0003 0036 265
E: 1521.630977 0003 003a 10
E: 1521.630980 0003 002f 1
E: 1521.630981 0003 0039 -1
E: 1521.631001 0001 0145 1
E: 1521.631003 0001 014d 0
E: 1521.631007 0003 0001 265
E: 1521.631009 0003 0018 10
E: 1521.631011 0000 0000 0
E: 1521.639084 0003 002f 0
E: 1521.639086 0003 0039 -1
E: 1521.639108 0001 014a 0
E: 1521.639109 0001 0145 0
E: 1521.639112 0003 0018 0
E: 1521.639114 0000 0000 0
E: 1521.639614 0003 002f 0
E: 1521.639614 0003 0039 -1
E: 1521.639614 0003 002f 1
E: 1521.639614 0003 0039 -1
E: 1521.639614 0003 002f 2
E: 1521.639614 0003 0039 -1
E: 1521.639614 0003 002f 3
E: 1521.639614 0003 0039 -1
E: 1521.639614 0003 002f 4
E: 1521.639614 0003 0039 -1
E: 1521.639614 0003 002f 5
E: 1521.639614 0003 0039 -1
E: 1521.639614 0003 002f 6
E: 1521.639614 0003 0039 -1
E: 1521.639614 0003 002f 7
E: 1521.639614 0003 0039 -1
E: 1521.639614 0003 002f 8
E: 1521.639614 0003 0039 -1
E: 1521.639614 0003 002f 9
E: 1521.639614 0003 0039 -1
E: 1521.639614 0003 002f 10
E: 1521.639614 0003 0039 -1
E: 1521.639614 0003 002f 11
E: 1521.639614 0003 0039 -1
E: 1521.639614 0003 002f 12
E: 1521.639614 0003 0039 -1
E: 1521.639614 0003 002f 13
E: 1521.639614 0003 0039 -1
E: 1521.639614 0003 002f 14
E: 1521.639614 0003 0039 -1
