# device: cyapa
# bit: 0B 00 00 00 00 00 00 00
# key: 00 00 00 00 00 00 00 00 00 00 00 00 00 00 00 00 00 00 00 00 00 00 00 00 00 00 00 00 00 00 00 00 00 00 01 00 00 00 00 00 20 E5 00 00 00 00 00 00 00 00 00 00 00 00 00 00 00 00 00 00 00 00 00 00 00 00 00 00 00 00 00 00 00 00 00 00 00 00 00 00 00 00 00 00 00 00 00 00 00 00 00 00 00 00 00 00
# rel: 00 00 00 00 00 00 00 00
# abs: 03 00 00 01 00 80 60 06
# led: 00 00 00 00 00 00 00 00
# prp: 05 00 00 00 00 00 00 00
# absinfo: 0 0 1280 0 0 12
# absinfo: 1 0 680 0 0 10
# absinfo: 24 0 255 0 0 0
# absinfo: 47 0 14 0 0 0
# absinfo: 53 0 1280 0 0 12
# absinfo: 54 0 680 0 0 10
# absinfo: 57 0 65535 0 0 0
# absinfo: 58 0 255 0 0 0
E: 16.922998 0003 002f 0
E: 16.922998 0003 0030 0
E: 16.922998 0003 0031 0
E: 16.922998 0003 0032 0
E: 16.922998 0003 0033 0
E: 16.922998 0003 0034 0
E: 16.922998 0003 0035 246
E: 16.922998 0003 0036 447
E: 16.922998 0003 0037 0
E: 16.922998 0003 0038 0
E: 16.922998 0003 0039 1
E: 16.922998 0003 003a 53
E: 16.922998 0003 003b 0
E: 16.922998 0003 002f 1
E: 16.922998 0003 0039 -1
E: 16.922998 0003 002f 2
E: 16.922998 0003 0039 -1
E: 16.922998 0003 002f 3
E: 16.922998 0003 0039 -1
E: 16.922998 0003 002f 4
E: 16.922998 0003 0039 -1
E: 16.922998 0003 002f 5
E: 16.922998 0003 0039 -1
E: 16.922998 0003 002f 6
E: 16.922998 0003 0039 -1
E: 16.922998 0003 002f 7
E: 16.922998 0003 0039 -1
E: 16.922998 0003 002f 8
E: 16.922998 0003 0039 -1
E: 16.922998 0003 002f 9
E: 16.922998 0003 0039 -1
E: 16.922998 0003 002f 10
E: 16.922998 0003 0039 -1
E: 16.922998 0003 002f 11
E: 16.922998 0003 0039 -1
E: 16.922998 0003 002f 12
E: 16.922998 0003 0039 -1
E: 16.922998 0003 002f 13
E: 16.922998 0003 0039 -1
E: 16.922998 0003 002f 14
E: 16.922998 0003 0039 -1
E: 16.922998 0003 002f 0
E: 16.922998 0001 0110 1
E: 16.922998 0001 0145 1
E: 16.922998 0001 014a 1
E: 16.922998 0000 0000 0
E: 16.932123 0003 0035 245
E: 16.932153 0003 0000 245
E: 16.932157 0000 0000 0
E: 16.959452 0003 003a 52
E: 16.959482 0003 0018 52
E: 16.959484 0000 0000 0
E: 16.968669 0003 003a 53
E: 16.968699 0003 0018 53
E: 16.968701 0000 0000 0
E: 16.995971 0003 003a 54
E: 16.996001 0003 0018 54
E: 16.996038 0000 0000 0
E: 17.005030 0003 003a 53
E: 17.005059 0003 0018 53
E: 17.005061 0000 0000 0
E: 17.023194 0003 003a 52
E: 17.023205 0003 0018 52
E: 17.023206 0000 0000 0
E: 17.032423 0003 0036 446
E: 17.032452 0003 0001 446
E: 17.032456 0000 0000 0
E: 17.041580 0003 003a 53
E: 17.041609 0003 0018 53
E: 17.041612 0000 0000 0
E: 17.078096 0003 003a 54
E: 17.078125 0003 0018 54
E: 17.078128 0000 0000 0
E: 17.087294 0003 003a 53
E: 17.087324 0003 0018 53
E: 17.087326 0000 0000 0
E: 17.105502 0003 003a 54
E: 17.105532 0003 0018 54
E: 17.105534 0000 0000 0
E: 17.123714 0003 003a 55
E: 17.123752 0003 0018 55
E: 17.123755 0000 0000 0
E: 17.132937 0003 003a 54
E: 17.132967 0003 0018 54
E: 17.132969 0000 0000 0
E: 17.141989 0003 003a 55
E: 17.142046 0003 0018 55
E: 17.142048 0000 0000 0
E: 17.151215 0003 003a 53
E: 17.151263 0003 0018 53
E: 17.151267 0000 0000 0
E: 17.178486 0003 003a 54
E: 17.178516 0003 0018 54
E: 17.178518 0000 0000 0
E: 17.187736 0003 003a 55
E: 17.187765 0003 0018 55
E: 17.187768 0000 0000 0
E: 17.196795 0003 003a 54
E: 17.196825 0003 0018 54
E: 17.196827 0000 0000 0
E: 17.215022 0003 003a 55
E: 17.215052 0003 0018 55
E: 17.215054 0000 0000 0
E: 17.224091 0003 0036 447
E: 17.224092 0003 003a 54
E: 17.224120 0003 0001 447
E: 17.224121 0003 0018 54
E: 17.224124 0000 0000 0
E: 17.233227 0003 003a 53
E: 17.233256 0003 0018 53
E: 17.233259 0000 0000 0
E: 17.280097 0003 0036 446
E: 17.280099 0003 003a 54
E: 17.280101 0003 002f 2
E: 17.280101 0003 0039 3
E: 17.280103 0003 0035 835
E: 17.280105 0003 0036 534
E: 17.280106 0003 003a 10
E: 17.280130 0001 0145 0
E: 17.280131 0001 014d 1
E: 17.280135 0003 0001 446
E: 17.280136 0003 0018 54
E: 17.280138 0000 0000 0
E: 17.290473 0003 002f 0
E: 17.290475 0003 003a 53
E: 17.290481 0003 002f 2
E: 17.290481 0003 0035 833
E: 17.290483 0003 0036 538
E: 17.290485 0003 003a 27
E: 17.290520 0003 0018 53
E: 17.290522 0000 0000 0
E: 17.300739 0003 002f 0
E: 17.300740 0003 003a 52
E: 17.300744 0003 002f 2
E: 17.300744 0003 0035 831
E: 17.300745 0003 0036 537
E: 17.300746 0003 003a 28
E: 17.300775 0003 0018 52
E: 17.300777 0000 0000 0
E: 17.311131 0003 0035 828
E: 17.311133 0003 0036 531
E: 17.311135 0003 003a 29
E: 17.311165 0000 0000 0
E: 17.321543 0003 002f 0
E: 17.321544 0003 003a 53
E: 17.321548 0003 002f 2
E: 17.321548 0003 0035 826
E: 17.321550 0003 0036 524
E: 17.321551 0003 003a 30
E: 17.321579 0003 0018 53
E: 17.321582 0000 0000 0
E: 17.331813 0003 0036 520
E: 17.331815 0003 003a 31
E: 17.331845 0000 0000 0
E: 17.342100 0003 002f 0
E: 17.342101 0003 003a 54
E: 17.342105 0003 002f 2
E: 17.342106 0003 0036 512
E: 17.342107 0003 003a 33
E: 17.342135 0003 0018 54
E: 17.342137 0000 0000 0
E: 17.352630 0003 002f 0
E: 17.352631 0003 003a 53
E: 17.352635 0003 002f 2
E: 17.352635 0003 0035 827
E: 17.352636 0003 0036 508
E: 17.352637 0003 003a 32
E: 17.352666 0003 0018 53
E: 17.352668 0000 0000 0
E: 17.363094 0003 0035 831
E: 17.363096 0003 0036 501
E: 17.363128 0000 0000 0
E: 17.373615 0003 002f 0
E: 17.373616 0003 003a 54
E: 17.373620 0003 002f 2
E: 17.373620 0003 0035 833
E: 17.373621 0003 0036 496
E: 17.373622 0003 003a 33
E: 17.373650 0003 0018 54
E: 17.373652 0000 0000 0
E: 17.384089 0003 002f 0
E: 17.384091 0003 0035 246
E: 17.384093 0003 0036 447
E: 17.384095 0003 003a 53
E: 17.384100 0003 002f 2
E: 17.384101 0003 0035 835
E: 17.384102 0003 0036 489
E: 17.384104 0003 003a 34
E: 17.384142 0003 0000 246
E: 17.384143 0003 0001 447
E: 17.384143 0003 0018 53
E: 17.384145 0000 0000 0
E: 17.394703 0003 002f 0
E: 17.394704 0003 0036 446
E: 17.394709 0003 002f 2
E: 17.394709 0003 0035 837
E: 17.394710 0003 0036 483
E: 17.394711 0003 003a 31
E: 17.394739 0003 0001 446
E: 17.394742 0000 0000 0
E: 17.405137 0003 002f 0
E: 17.405139 0003 003a 54
E: 17.405143 0003 002f 2
E: 17.405143 0003 0035 839
E: 17.405144 0003 0036 475
E: 17.405145 0003 003a 33
E: 17.405174 0003 0018 54
E: 17.405176 0000 0000 0
E: 17.415419 0003 002f 0
E: 17.415420 0003 003a 53
E: 17.415424 0003 002f 2
E: 17.415425 0003 0035 841
E: 17.415426 0003 0036 464
E: 17.415427 0003 003a 32
E: 17.415455 0003 0018 53
E: 17.415458 0000 0000 0
E: 17.425713 0003 002f 0
E: 17.425714 0003 003a 52
E: 17.425718 0003 002f 2
E: 17.425718 0003 0035 843
E: 17.425720 0003 0036 450
E: 17.425749 0003 0018 52
E: 17.425751 0000 0000 0
E: 17.436299 0003 0035 846
E: 17.436301 0003 0036 442
E: 17.436302 0003 003a 33
E: 17.436333 0000 0000 0
E: 17.446582 0003 002f 0
E: 17.446583 0003 0036 447
E: 17.446588 0003 002f 2
E: 17.446588 0003 0035 847
E: 17.446589 0003 0036 433
E: 17.446618 0003 0001 447
E: 17.446621 0000 0000 0
E: 17.456945 0003 002f 0
E: 17.456947 0003 003a 51
E: 17.456952 0003 002f 2
E: 17.456953 0003 0035 849
E: 17.456954 0003 0036 425
E: 17.456996 0003 0018 51
E: 17.456999 0000 0000 0
E: 17.467389 0003 002f 0
E: 17.467391 0003 003a 52
E: 17.467395 0003 002f 2
E: 17.467396 0003 0036 417
E: 17.467397 0003 003a 35
E: 17.467425 0003 0018 52
E: 17.467428 0000 0000 0
E: 17.477721 0003 0036 408
E: 17.477723 0003 003a 34
E: 17.477753 0000 0000 0
E: 17.487957 0003 002f 0
E: 17.487959 0003 003a 53
E: 17.487962 0003 002f 2
E: 17.487963 0003 0035 850
E: 17.487964 0003 0036 400
E: 17.487965 0003 003a 32
E: 17.487993 0003 0018 53
E: 17.487995 0000 0000 0
E: 17.498305 0003 002f 0
E: 17.498307 0003 003a 52
E: 17.498310 0003 002f 2
E: 17.498311 0003 0035 851
E: 17.498312 0003 0036 394
E: 17.498313 0003 003a 34
E: 17.498342 0003 0018 52
E: 17.498344 0000 0000 0
E: 17.508589 0003 0036 390
E: 17.508591 0003 003a 33
E: 17.508621 0000 0000 0
E: 17.519108 0003 002f 0
E: 17.519109 0003 003a 53
E: 17.519113 0003 002f 2
E: 17.519114 0003 0036 382
E: 17.519115 0003 003a 35
E: 17.519143 0003 0018 53
E: 17.519145 0000 0000 0
E: 17.529644 0003 0036 377
E: 17.529646 0003 003a 34
E: 17.529675 0000 0000 0
E: 17.540218 0003 0036 374
E: 17.540221 0003 003a 37
E: 17.540258 0000 0000 0
E: 17.550862 0003 0035 849
E: 17.550864 0003 0036 369
E: 17.550865 0003 003a 34
E: 17.550896 0000 0000 0
E: 17.561253 0003 002f 0
E: 17.561254 0003 0035 245
E: 17.561259 0003 002f 2
E: 17.561259 0003 0035 847
E: 17.561261 0003 0036 364
E: 17.561262 0003 003a 37
E: 17.561288 0003 0000 245
E: 17.561292 0000 0000 0
E: 17.571806 0003 002f 0
E: 17.571807 0003 003a 54
E: 17.571811 0003 002f 2
E: 17.571811 0003 0035 846
E: 17.571812 0003 0036 360
E: 17.571842 0003 0018 54
E: 17.571844 0000 0000 0
E: 17.582233 0003 0035 844
E: 17.582235 0003 0036 352
E: 17.582236 0003 003a 36
E: 17.582267 0000 0000 0
E: 17.592463 0003 002f 0
E: 17.592465 0003 0036 446
E: 17.592466 0003 003a 52
E: 17.592470 0003 002f 2
E: 17.592471 0003 0036 342
E: 17.592506 0003 0001 446
E: 17.592508 0003 0018 52
E: 17.592511 0000 0000 0
E: 17.602808 0003 002f 0
E: 17.602809 0003 003a 53
E: 17.602814 0003 002f 2
E: 17.602814 0003 0036 334
E: 17.602843 0003 0018 53
E: 17.602845 0000 0000 0
E: 17.613186 0003 002f 0
E: 17.613187 0003 003a 54
E: 17.613191 0003 002f 2
E: 17.613191 0003 0035 842
E: 17.613192 0003 0036 327
E: 17.613194 0003 003a 38
E: 17.613222 0003 0018 54
E: 17.613224 0000 0000 0
E: 17.623617 0003 002f 0
E: 17.623619 0003 003a 53
E: 17.623624 0003 002f 2
E: 17.623624 0003 0035 841
E: 17.623626 0003 0036 319
E: 17.623627 0003 003a 39
E: 17.623662 0003 0018 53
E: 17.623665 0000 0000 0
E: 17.634350 0003 0036 314
E: 17.634382 0000 0000 0
E: 17.644720 0003 0036 310
E: 17.644752 0000 0000 0
E: 17.655426 0003 002f 0
E: 17.655428 0003 0036 447
E: 17.655429 0003 003a 54
E: 17.655433 0003 002f 2
E: 17.655433 0003 0035 840
E: 17.655434 0003 0036 304
E: 17.655463 0003 0001 447
E: 17.655464 0003 0018 54
E: 17.655466 0000 0000 0
E: 17.665854 0003 0036 299
E: 17.665856 0003 003a 37
E: 17.665887 0000 0000 0
E: 17.676154 0003 0036 292
E: 17.676156 0003 003a 38
E: 17.676186 0000 0000 0
E: 17.686672 0003 0036 281
E: 17.686704 0000 0000 0
E: 17.696908 0003 002f 0
E: 17.696909 0003 003a 53
E: 17.696914 0003 002f 2
E: 17.696914 0003 0036 274
E: 17.696915 0003 003a 39
E: 17.696944 0003 0018 53
E: 17.696946 0000 0000 0
E: 17.707387 0003 0036 263
E: 17.707389 0003 003a 41
E: 17.707429 0000 0000 0
E: 17.717920 0003 002f 0
E: 17.717922 0003 003a 54
E: 17.717926 0003 002f 2
E: 17.717927 0003 0036 256
E: 17.717928 0003 003a 40
E: 17.717957 0003 0018 54
E: 17.717959 0000 0000 0
E: 17.728607 0003 0036 249
E: 17.728610 0003 003a 41
E: 17.728640 0000 0000 0
E: 17.739113 0003 0035 838
E: 17.739115 0003 0036 245
E: 17.739116 0003 003a 39
E: 17.739146 0000 0000 0
E: 17.749732 0003 0035 837
E: 17.749735 0003 0036 236
E: 17.749737 0003 003a 38
E: 17.749775 0000 0000 0
E: 17.760104 0003 0036 229
E: 17.760106 0003 003a 43
E: 17.760136 0000 0000 0
E: 17.770471 0003 002f 0
E: 17.770473 0003 003a 53
E: 17.770476 0003 002f 2
E: 17.770477 0003 0035 835
E: 17.770478 0003 0036 223
E: 17.770479 0003 003a 42
E: 17.770507 0003 0018 53
E: 17.770510 0000 0000 0
E: 17.780900 0003 0036 212
E: 17.780933 0000 0000 0
E: 17.791306 0003 0035 833
E: 17.791308 0003 0036 203
E: 17.791339 0000 0000 0
E: 17.801918 0003 0035 831
E: 17.801920 0003 0036 198
E: 17.801921 0003 003a 43
E: 17.801951 0000 0000 0
E: 17.812365 0003 002f 0
E: 17.812366 0003 003a 54
E: 17.812369 0003 002f 2
E: 17.812370 0003 0035 830
E: 17.812371 0003 0036 192
E: 17.812372 0003 003a 40
E: 17.812401 0003 0018 54
E: 17.812403 0000 0000 0
E: 17.822935 0003 002f 0
E: 17.822936 0003 003a 53
E: 17.822940 0003 002f 2
E: 17.822940 0003 0035 827
E: 17.822941 0003 0036 188
E: 17.822971 0003 0018 53
E: 17.822973 0000 0000 0
E: 17.833585 0003 002f 0
E: 17.833587 0003 003a 55
E: 17.833590 0003 002f 2
E: 17.833591 0003 0035 826
E: 17.833592 0003 0036 183
E: 17.833593 0003 003a 41
E: 17.833622 0003 0018 55
E: 17.833624 0000 0000 0
E: 17.844079 0003 002f 0
E: 17.844081 0003 003a 53
E: 17.844084 0003 002f 2
E: 17.844085 0003 0035 825
E: 17.844086 0003 0036 177
E: 17.844115 0003 0018 53
E: 17.844118 0000 0000 0
E: 17.854801 0003 0035 823
E: 17.854803 0003 0036 174
E: 17.854834 0000 0000 0
E: 17.865327 0003 002f 0
E: 17.865328 0003 0036 446
E: 17.865333 0003 002f 2
E: 17.865333 0003 0035 822
E: 17.865334 0003 0036 167
E: 17.865335 0003 003a 42
E: 17.865363 0003 0001 446
E: 17.865366 0000 0000 0
E: 17.875758 0003 0035 821
E: 17.875760 0003 0036 163
E: 17.875802 0000 0000 0
E: 17.886321 0003 0036 157
E: 17.886323 0003 003a 43
E: 17.886352 0000 0000 0
E: 17.896804 0003 0035 820
E: 17.896806 0003 0036 152
E: 17.896807 0003 003a 46
E: 17.896837 0000 0000 0
E: 17.907440 0003 0036 149
E: 17.907443 0003 003a 43
E: 17.907484 0000 0000 0
E: 17.918034 0003 002f 0
E: 17.918035 0003 003a 54
E: 17.918039 0003 002f 2
E: 17.918039 0003 0035 819
E: 17.918041 0003 0036 146
E: 17.918042 0003 003a 44
E: 17.918070 0003 0018 54
E: 17.918072 0000 0000 0
E: 17.928711 0003 0035 818
E: 17.928713 0003 0036 141
E: 17.928745 0000 0000 0
E: 17.939425 0003 002f 0
E: 17.939427 0003 003a 53
E: 17.939430 0003 002f 2
E: 17.939431 0003 0035 817
E: 17.939432 0003 0036 138
E: 17.939433 0003 003a 45
E: 17.939461 0003 0018 53
E: 17.939463 0000 0000 0
E: 17.950024 0003 0036 134
E: 17.950026 0003 003a 43
E: 17.950056 0000 0000 0
E: 17.960818 0003 0035 816
E: 17.960820 0003 0036 132
E: 17.960852 0000 0000 0
E: 17.971460 0003 0036 130
E: 17.971491 0000 0000 0
E: 17.982115 0003 0036 128
E: 17.982118 0003 003a 42
E: 17.982161 0000 0000 0
E: 17.993101 0003 002f 0
E: 17.993102 0003 003a 52
E: 17.993109 0003 002f 2
E: 17.993109 0003 0036 123
E: 17.993111 0003 003a 43
E: 17.993151 0003 0018 52
E: 17.993155 0000 0000 0
E: 18.003946 0003 002f 0
E: 18.003947 0003 003a 53
E: 18.003949 0003 002f 2
E: 18.003949 0003 0036 118
E: 18.003950 0003 003a 44
E: 18.003964 0003 0018 53
E: 18.003966 0000 0000 0
E: 18.014798 0003 0036 115
E: 18.014799 0003 003a 43
E: 18.014816 0000 0000 0
E: 18.025865 0003 0036 113
E: 18.025868 0003 003a 44
E: 18.025898 0000 0000 0
E: 18.036420 0003 0035 817
E: 18.036421 0003 0036 106
E: 18.036451 0000 0000 0
E: 18.047177 0003 0036 103
E: 18.047178 0003 003a 42
E: 18.047208 0000 0000 0
E: 18.057971 0003 0036 96
E: 18.057974 0003 003a 44
E: 18.058035 0000 0000 0
E: 18.068876 0003 0036 92
E: 18.068878 0003 003a 45
E: 18.068909 0000 0000 0
E: 18.079529 0003 0036 90
E: 18.079531 0003 003a 44
E: 18.079561 0000 0000 0
E: 18.090271 0003 002f 0
E: 18.090273 0003 003a 52
E: 18.090279 0003 002f 2
E: 18.090280 0003 0036 88
E: 18.090318 0003 0018 52
E: 18.090321 0000 0000 0
E: 18.101073 0003 0035 818
E: 18.101075 0003 0036 86
E: 18.101076 0003 003a 45
E: 18.101106 0000 0000 0
E: 18.111848 0003 002f 0
E: 18.111849 0003 0035 246
E: 18.111851 0003 003a 53
E: 18.111856 0003 002f 2
E: 18.111856 0003 0036 85
E: 18.111858 0003 003a 44
E: 18.111884 0003 0000 246
E: 18.111887 0003 0018 53
E: 18.111889 0000 0000 0
E: 18.122662 0003 002f 0
E: 18.122663 0003 003a 52
E: 18.122667 0003 002f 2
E: 18.122668 0003 0035 819
E: 18.122669 0003 0036 84
E: 18.122670 0003 003a 45
E: 18.122698 0003 0018 52
E: 18.122701 0000 0000 0
E: 18.133398 0003 002f 0
E: 18.133400 0003 003a 53
E: 18.133433 0003 0018 53
E: 18.133436 0000 0000 0
E: 18.144106 0003 003a 54
E: 18.144113 0003 002f 2
E: 18.144113 0003 003a 44
E: 18.144142 0003 0018 54
E: 18.144144 0000 0000 0
E: 18.154854 0003 002f 0
E: 18.154856 0003 003a 53
E: 18.154859 0003 002f 2
E: 18.154860 0003 0035 820
E: 18.154890 0003 0018 53
E: 18.154892 0000 0000 0
E: 18.165684 0003 0036 86
E: 18.165716 0000 0000 0
E: 18.176328 0003 0035 822
E: 18.176330 0003 0036 89
E: 18.176361 0000 0000 0
E: 18.187156 0003 0035 825
E: 18.187158 0003 0036 98
E: 18.187159 0003 003a 45
E: 18.187190 0000 0000 0
E: 18.197850 0003 002f 0
E: 18.197851 0003 003a 52
E: 18.197855 0003 002f 2
E: 18.197855 0003 0035 827
E: 18.197856 0003 0036 107
E: 18.197858 0003 003a 43
E: 18.197886 0003 0018 52
E: 18.197888 0000 0000 0
E: 18.208519 0003 002f 0
E: 18.208521 0003 003a 53
E: 18.208526 0003 002f 2
E: 18.208527 0003 0035 831
E: 18.208529 0003 0036 117
E: 18.208568 0003 0018 53
E: 18.208571 0000 0000 0
E: 18.219127 0003 0035 838
E: 18.219129 0003 0036 125
E: 18.219160 0000 0000 0
E: 18.229637 0003 0035 842
E: 18.229638 0003 0036 135
E: 18.229670 0000 0000 0
E: 18.240106 0003 0035 846
E: 18.240109 0003 0036 147
E: 18.240110 0003 003a 42
E: 18.240156 0000 0000 0
E: 18.250462 0003 0035 850
E: 18.250464 0003 0036 160
E: 18.250495 0000 0000 0
E: 18.261089 0003 002f 0
E: 18.261090 0003 003a 52
E: 18.261094 0003 002f 2
E: 18.261094 0003 0035 856
E: 18.261096 0003 0036 173
E: 18.261125 0003 0018 52
E: 18.261127 0000 0000 0
E: 18.271824 0003 0035 860
E: 18.271827 0003 0036 180
E: 18.271828 0003 003a 40
E: 18.271858 0000 0000 0
E: 18.282600 0003 002f 0
E: 18.282602 0003 0036 445
E: 18.282603 0003 003a 51
E: 18.282607 0003 002f 2
E: 18.282607 0003 0035 863
E: 18.282608 0003 0036 189
E: 18.282609 0003 003a 41
E: 18.282637 0003 0001 445
E: 18.282638 0003 0018 51
E: 18.282640 0000 0000 0
E: 18.293069 0003 002f 0
E: 18.293070 0003 003a 52
E: 18.293074 0003 002f 2
E: 18.293074 0003 0035 867
E: 18.293075 0003 0036 201
E: 18.293105 0003 0018 52
E: 18.293107 0000 0000 0
E: 18.303648 0003 002f 0
E: 18.303649 0003 003a 53
E: 18.303653 0003 002f 2
E: 18.303654 0003 0035 870
E: 18.303655 0003 0036 214
E: 18.303656 0003 003a 40
E: 18.303684 0003 0018 53
E: 18.303687 0000 0000 0
E: 18.314110 0003 0035 871
E: 18.314112 0003 0036 224
E: 18.314154 0000 0000 0
E: 18.324756 0003 002f 0
E: 18.324757 0003 003a 54
E: 18.324761 0003 002f 2
E: 18.324762 0003 0035 873
E: 18.324763 0003 0036 233
E: 18.324764 0003 003a 41
E: 18.324792 0003 0018 54
E: 18.324795 0000 0000 0
E: 18.335554 0003 0035 874
E: 18.335556 0003 0036 243
E: 18.335557 0003 003a 40
E: 18.335587 0000 0000 0
E: 18.346381 0003 002f 0
E: 18.346382 0003 003a 53
E: 18.346386 0003 002f 2
E: 18.346387 0003 0036 250
E: 18.346388 0003 003a 38
E: 18.346416 0003 0018 53
E: 18.346418 0000 0000 0
E: 18.357207 0003 0035 875
E: 18.357209 0003 0036 258
E: 18.357210 0003 003a 40
E: 18.357240 0000 0000 0
E: 18.367758 0003 002f 0
E: 18.367759 0003 003a 54
E: 18.367764 0003 002f 2
E: 18.367764 0003 0036 265
E: 18.367793 0003 0018 54
E: 18.367796 0000 0000 0
E: 18.378397 0003 002f 0
E: 18.378399 0003 0036 446
E: 18.378404 0003 002f 2
E: 18.378404 0003 0036 272
E: 18.378405 0003 003a 41
E: 18.378433 0003 0001 446
E: 18.378436 0000 0000 0
E: 18.389044 0003 002f 0
E: 18.389045 0003 003a 52
E: 18.389050 0003 002f 2
E: 18.389050 0003 0036 277
E: 18.389052 0003 003a 40
E: 18.389080 0003 0018 52
E: 18.389083 0000 0000 0
E: 18.399529 0003 002f 0
E: 18.399530 0003 0036 447
E: 18.399531 0003 003a 53
E: 18.399536 0003 002f 2
E: 18.399536 0003 0036 285
E: 18.399565 0003 0001 447
E: 18.399566 0003 0018 53
E: 18.399568 0000 0000 0
E: 18.410027 0003 0036 290
E: 18.410029 0003 003a 41
E: 18.410060 0000 0000 0
E: 18.420886 0003 002f 0
E: 18.420887 0003 003a 54
E: 18.420891 0003 002f 2
E: 18.420891 0003 0035 876
E: 18.420893 0003 0036 297
E: 18.420894 0003 003a 40
E: 18.420922 0003 0018 54
E: 18.420924 0000 0000 0
E: 18.431686 0003 002f 0
E: 18.431688 0003 0036 445
E: 18.431689 0003 003a 52
E: 18.431694 0003 002f 2
E: 18.431694 0003 0036 301
E: 18.431722 0003 0001 445
E: 18.431723 0003 0018 52
E: 18.431726 0000 0000 0
E: 18.442351 0003 002f 0
E: 18.442352 0003 003a 53
E: 18.442357 0003 002f 2
E: 18.442357 0003 0036 306
E: 18.442359 0003 003a 38
E: 18.442387 0003 0018 53
E: 18.442389 0000 0000 0
E: 18.453199 0003 0036 311
E: 18.453201 0003 003a 40
E: 18.453230 0000 0000 0
E: 18.463937 0003 0036 316
E: 18.463939 0003 003a 38
E: 18.463969 0000 0000 0
E: 18.474508 0003 0036 326
E: 18.474510 0003 003a 39
E: 18.474540 0000 0000 0
E: 18.485165 0003 0036 333
E: 18.485198 0000 0000 0
E: 18.495579 0003 0036 340
E: 18.495581 0003 003a 38
E: 18.495612 0000 0000 0
E: 18.506176 0003 002f 0
E: 18.506177 0003 0036 446
E: 18.506183 0003 002f 2
E: 18.506183 0003 0036 348
E: 18.506184 0003 003a 39
E: 18.506212 0003 0001 446
E: 18.506215 0000 0000 0
E: 18.516765 0003 002f 0
E: 18.516766 0003 003a 51
E: 18.516771 0003 002f 2
E: 18.516771 0003 0036 355
E: 18.516772 0003 003a 40
E: 18.516801 0003 0018 51
E: 18.516803 0000 0000 0
E: 18.527533 0003 002f 0
E: 18.527534 0003 003a 52
E: 18.527538 0003 002f 2
E: 18.527539 0003 0036 363
E: 18.527540 0003 003a 39
E: 18.527568 0003 0018 52
E: 18.527570 0000 0000 0
E: 18.538455 0003 0036 367
E: 18.538487 0000 0000 0
E: 18.549252 0003 0036 372
E: 18.549285 0000 0000 0
E: 18.559995 0003 0036 376
E: 18.560053 0000 0000 0
E: 18.570577 0003 0036 383
E: 18.570579 0003 003a 38
E: 18.570609 0000 0000 0
E: 18.581074 0003 0036 392
E: 18.581106 0000 0000 0
E: 18.591439 0003 0035 875
E: 18.591441 0003 0036 399
E: 18.591442 0003 003a 37
E: 18.591472 0000 0000 0
E: 18.602114 0003 0036 406
E: 18.602146 0000 0000 0
E: 18.612522 0003 002f 0
E: 18.612524 0003 003a 51
E: 18.612527 0003 002f 2
E: 18.612528 0003 0035 874
E: 18.612529 0003 0036 412
E: 18.612558 0003 0018 51
E: 18.612560 0000 0000 0
E: 18.623228 0003 002f 0
E: 18.623229 0003 003a 50
E: 18.623232 0003 002f 2
E: 18.623233 0003 0035 873
E: 18.623234 0003 0036 417
E: 18.623235 0003 003a 36
E: 18.623263 0003 0018 50
E: 18.623265 0000 0000 0
E: 18.633908 0003 002f 0
E: 18.633910 0003 003a 52
E: 18.633914 0003 002f 2
E: 18.633915 0003 0036 423
E: 18.633916 0003 003a 38
E: 18.633944 0003 0018 52
E: 18.633947 0000 0000 0
E: 18.644658 0003 002f 0
E: 18.644659 0003 003a 51
E: 18.644664 0003 002f 2
E: 18.644664 0003 0036 427
E: 18.644665 0003 003a 37
E: 18.644694 0003 0018 51
E: 18.644696 0000 0000 0
E: 18.655430 0003 0036 430
E: 18.655432 0003 003a 36
E: 18.655463 0000 0000 0
E: 18.666287 0003 002f 0
E: 18.666288 0003 003a 50
E: 18.666293 0003 002f 2
E: 18.666293 0003 0036 433
E: 18.666294 0003 003a 34
E: 18.666323 0003 0018 50
E: 18.666325 0000 0000 0
E: 18.676856 0003 0036 438
E: 18.676858 0003 003a 35
E: 18.676889 0000 0000 0
E: 18.687355 0003 002f 0
E: 18.687355 0003 003a 52
E: 18.687359 0003 002f 2
E: 18.687359 0003 0035 872
E: 18.687361 0003 0036 442
E: 18.687362 0003 003a 37
E: 18.687389 0003 0018 52
E: 18.687391 0000 0000 0
E: 18.698097 0003 0036 447
E: 18.698099 0003 003a 36
E: 18.698130 0000 0000 0
E: 18.708423 0003 002f 0
E: 18.708424 0003 003a 53
E: 18.708429 0003 002f 2
E: 18.708429 0003 0036 452
E: 18.708458 0003 0018 53
E: 18.708461 0000 0000 0
E: 18.719094 0003 002f 0
E: 18.719095 0003 003a 52
E: 18.719099 0003 002f 2
E: 18.719099 0003 0035 871
E: 18.719101 0003 0036 460
E: 18.719102 0003 003a 35
E: 18.719131 0003 0018 52
E: 18.719133 0000 0000 0
E: 18.729472 0003 002f 0
E: 18.729473 0003 003a 51
E: 18.729478 0003 002f 2
E: 18.729478 0003 0036 468
E: 18.729479 0003 003a 36
E: 18.729508 0003 0018 51
E: 18.729510 0000 0000 0
E: 18.740073 0003 002f 0
E: 18.740074 0003 003a 52
E: 18.740079 0003 002f 2
E: 18.740079 0003 0036 473
E: 18.740080 0003 003a 35
E: 18.740109 0003 0018 52
E: 18.740111 0000 0000 0
E: 18.750720 0003 002f 0
E: 18.750721 0003 003a 51
E: 18.750726 0003 002f 2
E: 18.750726 0003 0036 480
E: 18.750755 0003 0018 51
E: 18.750758 0000 0000 0
E: 18.761256 0003 0036 485
E: 18.761258 0003 003a 36
E: 18.761289 0000 0000 0
E: 18.772114 0003 002f 0
E: 18.772115 0003 003a 52
E: 18.772120 0003 002f 2
E: 18.772120 0003 0036 491
E: 18.772149 0003 0018 52
E: 18.772152 0000 0000 0
E: 18.782971 0003 0036 494
E: 18.783033 0000 0000 0
E: 18.793492 0003 002f 0
E: 18.793494 0003 003a 50
E: 18.793499 0003 002f 2
E: 18.793499 0003 0036 502
E: 18.793500 0003 003a 34
E: 18.793529 0003 0018 50
E: 18.793531 0000 0000 0
E: 18.804118 0003 002f 0
E: 18.804119 0003 0036 445
E: 18.804124 0003 002f 2
E: 18.804125 0003 0036 506
E: 18.804126 0003 003a 33
E: 18.804153 0003 0001 445
E: 18.804157 0000 0000 0
E: 18.814602 0003 0036 515
E: 18.814604 0003 003a 36
E: 18.814635 0000 0000 0
E: 18.825096 0003 002f 0
E: 18.825098 0003 0036 444
E: 18.825099 0003 003a 52
E: 18.825104 0003 002f 2
E: 18.825104 0003 0036 520
E: 18.825105 0003 003a 34
E: 18.825133 0003 0001 444
E: 18.825134 0003 0018 52
E: 18.825136 0000 0000 0
E: 18.835680 0003 002f 0
E: 18.835682 0003 003a 51
E: 18.835686 0003 002f 2
E: 18.835687 0003 0035 870
E: 18.835688 0003 0036 526
E: 18.835718 0003 0018 51
E: 18.835720 0000 0000 0
E: 18.846139 0003 002f 0
E: 18.846140 0003 003a 52
E: 18.846144 0003 002f 2
E: 18.846144 0003 0035 869
E: 18.846146 0003 0036 534
E: 18.846175 0003 0018 52
E: 18.846177 0000 0000 0
E: 18.856694 0003 002f 0
E: 18.856695 0003 0036 445
E: 18.856696 0003 003a 53
E: 18.856700 0003 002f 2
E: 18.856701 0003 0035 868
E: 18.856702 0003 0036 542
E: 18.856703 0003 003a 35
E: 18.856733 0003 0001 445
E: 18.856734 0003 0018 53
E: 18.856736 0000 0000 0
E: 18.867460 0003 002f 0
E: 18.867461 0003 003a 51
E: 18.867466 0003 002f 2
E: 18.867466 0003 0036 548
E: 18.867467 0003 003a 34
E: 18.867496 0003 0018 51
E: 18.867498 0000 0000 0
E: 18.878212 0003 002f 0
E: 18.878214 0003 003a 52
E: 18.878218 0003 002f 2
E: 18.878219 0003 0036 554
E: 18.878248 0003 0018 52
E: 18.878250 0000 0000 0
E: 18.888884 0003 0036 559
E: 18.888886 0003 003a 33
E: 18.888917 0000 0000 0
E: 18.899663 0003 002f 0
E: 18.899665 0003 003a 53
E: 18.899668 0003 002f 2
E: 18.899669 0003 0035 869
E: 18.899670 0003 0036 565
E: 18.899699 0003 0018 53
E: 18.899702 0000 0000 0
E: 18.910244 0003 0036 576
E: 18.910246 0003 003a 31
E: 18.910277 0000 0000 0
E: 18.920994 0003 0036 585
E: 18.920996 0003 003a 32
E: 18.921054 0000 0000 0
E: 18.931509 0003 0036 588
E: 18.931511 0003 003a 31
E: 18.931541 0000 0000 0
E: 18.942235 0003 0036 592
E: 18.942237 0003 003a 32
E: 18.942267 0000 0000 0
E: 18.953098 0003 002f 0
E: 18.953099 0003 003a 52
E: 18.953104 0003 002f 2
E: 18.953104 0003 0036 595
E: 18.953133 0003 0018 52
E: 18.953136 0000 0000 0
E: 18.963665 0003 002f 0
E: 18.963666 0003 003a 53
E: 18.963671 0003 002f 2
E: 18.963671 0003 0036 600
E: 18.963673 0003 003a 31
E: 18.963701 0003 0018 53
E: 18.963703 0000 0000 0
E: 18.974312 0003 002f 0
E: 18.974314 0003 0035 245
E: 18.974322 0003 002f 2
E: 18.974323 0003 0036 602
E: 18.974358 0003 0000 245
E: 18.974364 0000 0000 0
E: 18.995681 0003 0036 604
E: 18.995683 0003 003a 32
E: 18.995713 0000 0000 0
E: 19.006343 0003 002f 0
E: 19.006344 0003 003a 55
E: 19.006351 0003 002f 2
E: 19.006352 0003 0036 609
E: 19.006394 0003 0018 55
E: 19.006398 0000 0000 0
E: 19.017092 0003 002f 0
E: 19.017092 0003 0036 446
E: 19.017093 0003 003a 54
E: 19.017109 0003 0001 446
E: 19.017110 0003 0018 54
E: 19.017111 0000 0000 0
E: 19.027821 0003 002f 2
E: 19.027821 0003 0036 611
E: 19.027839 0000 0000 0
E: 19.038611 0003 002f 0
E: 19.038612 0003 003a 52
E: 19.038645 0003 0018 52
E: 19.038647 0000 0000 0
E: 19.049491 0003 002f 2
E: 19.049492 0003 0035 870
E: 19.049493 0003 0036 616
E: 19.049525 0000 0000 0
E: 19.060220 0003 002f 0
E: 19.060222 0003 003a 53
E: 19.060227 0003 002f 2
E: 19.060227 0003 0036 617
E: 19.060228 0003 003a 33
E: 19.060257 0003 0018 53
E: 19.060259 0000 0000 0
E: 19.071067 0003 002f 0
E: 19.071068 0003 003a 54
E: 19.071073 0003 002f 2
E: 19.071073 0003 0036 619
E: 19.071074 0003 003a 32
E: 19.071103 0003 0018 54
E: 19.071105 0000 0000 0
E: 19.082115 0003 002f 0
E: 19.082116 0003 0035 247
E: 19.082117 0003 0036 447
E: 19.082123 0003 002f 2
E: 19.082123 0003 0036 614
E: 19.082124 0003 003a 31
E: 19.082151 0003 0000 247
E: 19.082152 0003 0001 447
E: 19.082155 0000 0000 0
E: 19.093123 0003 002f 0
E: 19.093125 0003 0035 245
E: 19.093130 0003 002f 2
E: 19.093131 0003 0035 871
E: 19.093132 0003 0036 615
E: 19.093133 0003 003a 32
E: 19.093160 0003 0000 245
E: 19.093164 0000 0000 0
E: 19.104293 0003 002f 0
E: 19.104294 0003 003a 53
E: 19.104328 0003 0018 53
E: 19.104330 0000 0000 0
E: 19.115451 0003 002f 2
E: 19.115452 0003 0036 617
E: 19.115483 0000 0000 0
E: 19.137708 0003 002f 0
E: 19.137710 0003 003a 55
E: 19.137743 0003 0018 55
E: 19.137746 0000 0000 0
E: 19.159774 0003 003a 52
E: 19.159808 0003 0018 52
E: 19.159810 0000 0000 0
E: 19.170610 0003 003a 54
E: 19.170643 0003 0018 54
E: 19.170645 0000 0000 0
E: 19.204049 0003 002f 2
E: 19.204050 0003 0035 872
E: 19.204052 0003 003a 33
E: 19.204083 0000 0000 0
E: 19.215191 0003 002f 0
E: 19.215192 0003 0036 446
E: 19.215225 0003 0001 446
E: 19.215229 0000 0000 0
E: 19.248512 0003 0036 447
E: 19.248515 0003 003a 55
E: 19.248552 0003 0001 447
E: 19.248553 0003 0018 55
E: 19.248555 0000 0000 0
E: 19.259627 0003 003a 54
E: 19.259661 0003 0018 54
E: 19.259664 0000 0000 0
E: 19.270765 0003 002f 2
E: 19.270766 0003 003a 34
E: 19.270796 0000 0000 0
E: 19.281867 0003 002f 0
E: 19.281868 0003 003a 53
E: 19.281873 0003 002f 2
E: 19.281873 0003 0036 619
E: 19.281874 0003 003a 33
E: 19.281910 0003 0018 53
E: 19.281913 0000 0000 0
E: 19.292872 0003 002f 0
E: 19.292873 0003 003a 54
E: 19.292877 0003 002f 2
E: 19.292877 0003 0035 871
E: 19.292878 0003 0036 625
E: 19.292880 0003 003a 32
E: 19.292908 0003 0018 54
E: 19.292910 0000 0000 0
E: 19.304039 0003 002f 0
E: 19.304040 0003 003a 53
E: 19.304073 0003 0018 53
E: 19.304075 0000 0000 0
E: 19.315110 0003 002f 2
E: 19.315111 0003 0036 629
E: 19.315142 0000 0000 0
E: 19.326188 0003 0036 632
E: 19.326191 0003 003a 31
E: 19.326232 0000 0000 0
E: 19.337313 0003 0036 640
E: 19.337345 0000 0000 0
E: 19.348190 0003 002f 0
E: 19.348191 0003 003a 54
E: 19.348196 0003 002f 2
E: 19.348196 0003 0036 646
E: 19.348226 0003 0018 54
E: 19.348228 0000 0000 0
E: 19.369957 0003 0035 872
E: 19.369959 0003 0036 649
E: 19.369960 0003 003a 30
E: 19.369990 0000 0000 0
E: 19.380799 0003 0035 874
E: 19.380802 0003 0036 656
E: 19.380803 0003 003a 29
E: 19.380833 0000 0000 0
E: 19.402470 0003 002f 0
E: 19.402471 0003 003a 53
E: 19.402505 0003 0018 53
E: 19.402507 0000 0000 0
E: 19.413345 0003 002f 2
E: 19.413346 0003 0036 660
E: 19.413347 0003 003a 28
E: 19.413377 0000 0000 0
E: 19.424208 0003 0036 663
E: 19.424211 0003 003a 26
E: 19.424254 0000 0000 0
E: 19.435199 0003 002f 0
E: 19.435200 0003 003a 54
E: 19.435204 0003 002f 2
E: 19.435204 0003 0035 887
E: 19.435206 0003 0036 679
E: 19.435207 0003 003a 23
E: 19.435235 0003 0018 54
E: 19.435238 0000 0000 0
E: 19.446001 0003 002f 0
E: 19.446002 0003 003a 52
E: 19.446034 0003 002f 2
E: 19.446034 0003 0035 886
E: 19.446037 0003 003a 18
E: 19.446065 0003 0018 52
E: 19.446067 0000 0000 0
E: 19.456738 0003 002f 0
E: 19.456739 0003 003a 53
E: 19.456743 0003 002f 2
E: 19.456743 0003 0035 877
E: 19.456745 0003 0036 677
E: 19.456746 0003 003a 9
E: 19.456774 0003 0018 53
E: 19.456777 0000 0000 0
E: 19.465959 0003 0039 -1
E: 19.465981 0001 0145 1
E: 19.465983 0001 014d 0
E: 19.465988 0000 0000 0
E: 19.466488 0003 002f 0
E: 19.466488 0003 0039 -1
E: 19.466488 0003 002f 1
E: 19.466488 0003 0039 -1
E: 19.466488 0003 002f 2
E: 19.466488 0003 0039 -1
E: 19.466488 0003 002f 3
E: 19.466488 0003 0039 -1
E: 19.466488 0003 002f 4
E: 19.466488 0003 0039 -1
E: 19.466488 0003 002f 5
E: 19.466488 0003 0039 -1
E: 19.466488 0003 002f 6
E: 19.466488 0003 0039 -1
E: 19.466488 0003 002f 7
E: 19.466488 0003 0039 -1
E: 19.466488 0003 002f 8
E: 19.466488 0003 0039 -1
E: 19.466488 0003 002f 9
E: 19.466488 0003 0039 -1
E: 19.466488 0003 002f 10
E: 19.466488 0003 0039 -1
E: 19.466488 0003 002f 11
E: 19.466488 0003 0039 -1
E: 19.466488 0003 002f 12
E: 19.466488 0003 0039 -1
E: 19.466488 0003 002f 13
E: 19.466488 0003 0039 -1
E: 19.466488 0003 002f 14
E: 19.466488 0003 0039 -1
