# device: ACPI0C50:00 18D1:5028 Touchpad
# bit: 0B 00 00 00 00 00 00 00
# key: 00 00 00 00 00 00 00 00 00 00 00 00 00 00 00 00 00 00 00 00 00 00 00 00 00 00 00 00 00 00 00 00 00 00 01 00 00 00 00 00 20 E5 00 00 00 00 00 00 00 00 00 00 00 00 00 00 00 00 00 00 00 00 00 00 00 00 00 00 00 00 00 00 00 00 00 00 00 00 00 00 00 00 00 00 00 00 00 00 00 00 00 00 00 00 00 00
# rel: 00 00 00 00 00 00 00 00
# abs: 03 00 00 01 00 80 73 0E
# led: 00 00 00 00 00 00 00 00
# prp: 05 00 00 00 00 00 00 00
# absinfo: 0 0 13184 0 0 128
# absinfo: 1 0 8704 0 0 128
# absinfo: 24 0 255 0 0 0
# absinfo: 47 0 9 0 0 0
# absinfo: 48 0 13184 0 0 194
# absinfo: 49 0 8704 0 0 128
# absinfo: 52 0 1 0 0 0
# absinfo: 53 0 13184 0 0 128
# absinfo: 54 0 8704 0 0 128
# absinfo: 57 0 65535 0 0 0
# absinfo: 58 0 255 0 0 0
# absinfo: 59 0 1 0 0 0
E: 26674.526707 0003 002f 0
E: 26674.526707 0003 0030 432
E: 26674.526707 0003 0031 428
E: 26674.526707 0003 0032 0
E: 26674.526707 0003 0033 0
E: 26674.526707 0003 0034 0
E: 26674.526707 0003 0035 3835
E: 26674.526707 0003 0036 5202
E: 26674.526707 0003 0037 0
E: 26674.526707 0003 0038 0
E: 26674.526707 0003 0039 7008
E: 26674.526707 0003 003a 11
E: 26674.526707 0003 003b 0
E: 26674.526707 0003 002f 1
E: 26674.526707 0003 0039 -1
E: 26674.526707 0003 002f 2
E: 26674.526707 0003 0039 -1
E: 26674.526707 0003 002f 3
E: 26674.526707 0003 0039 -1
E: 26674.526707 0003 002f 4
E: 26674.526707 0003 0039 -1
E: 26674.526707 0003 002f 5
E: 26674.526707 0003 0039 -1
E: 26674.526707 0003 002f 6
E: 26674.526707 0003 0039 -1
E: 26674.526707 0003 002f 7
E: 26674.526707 0003 0039 -1
E: 26674.526707 0003 002f 8
E: 26674.526707 0003 0039 -1
E: 26674.526707 0003 002f 9
E: 26674.526707 0003 0039 -1
E: 26674.526707 0003 002f 0
E: 26674.526707 0001 0145 1
E: 26674.526707 0001 014a 1
E: 26674.526707 0000 0000 0
E: 26674.532688 0003 0035 3838
E: 26674.532688 0003 0036 5190
E: 26674.532688 0003 003a 23
E: 26674.532688 0003 0030 476
E: 26674.532688 0003 0031 463
E: 26674.532688 0003 0000 3838
E: 26674.532688 0003 0001 5190
E: 26674.532688 0003 0018 23
E: 26674.532688 0000 0000 0
E: 26674.538643 0003 0035 3812
E: 26674.538643 0003 0036 5163
E: 26674.538643 0003 003a 25
E: 26674.538643 0003 0030 486
E: 26674.538643 0003 0031 476
E: 26674.538643 0003 0000 3812
E: 26674.538643 0003 0001 5163
E: 26674.538643 0003 0018 25
E: 26674.538643 0000 0000 0
E: 26674.545138 0003 0035 3798
E: 26674.545138 0003 0036 5164
E: 26674.545138 0003 003a 28
E: 26674.545138 0003 0030 501
E: 26674.545138 0003 0031 499
E: 26674.545138 0003 0000 3798
E: 26674.545138 0003 0001 5164
E: 26674.545138 0003 0018 28
E: 26674.545138 0000 0000 0
E: 26674.557746 0003 0035 3804
E: 26674.557746 0003 0036 5181
E: 26674.557746 0003 0034 1
E: 26674.557746 0003 003a 32
E: 26674.557746 0003 0030 529
E: 26674.557746 0003 0031 524
E: 26674.557746 0003 0000 3804
E: 26674.557746 0003 0001 5181
E: 26674.557746 0003 0018 32
E: 26674.557746 0000 0000 0
E: 26674.563142 0003 0035 3808
E: 26674.563142 0003 0036 5202
E: 26674.563142 0003 003a 34
E: 26674.563142 0003 0030 549
E: 26674.563142 0003 0031 535
E: 26674.563142 0003 0000 3808
E: 26674.563142 0003 0001 5202
E: 26674.563142 0003 0018 34
E: 26674.563142 0000 0000 0
E: 26674.569496 0003 0035 3820
E: 26674.569496 0003 0036 5222
E: 26674.569496 0003 003a 35
E: 26674.569496 0003 0030 563
E: 26674.569496 0003 0031 546
E: 26674.569496 0003 0000 3820
E: 26674.569496 0003 0001 5222
E: 26674.569496 0003 0018 35
E: 26674.569496 0000 0000 0
E: 26674.575871 0003 0035 3836
E: 26674.575871 0003 0036 5247
E: 26674.575871 0003 003a 37
E: 26674.575871 0003 0030 577
E: 26674.575871 0003 0031 555
E: 26674.575871 0003 0000 3836
E: 26674.575871 0003 0001 5247
E: 26674.575871 0003 0018 37
E: 26674.575871 0000 0000 0
E: 26674.582218 0003 0035 3851
E: 26674.582218 0003 0036 5264
E: 26674.582218 0003 003a 38
E: 26674.582218 0003 0030 589
E: 26674.582218 0003 0031 561
E: 26674.582218 0003 0000 3851
E: 26674.582218 0003 0001 5264
E: 26674.582218 0003 0018 38
E: 26674.582218 0000 0000 0
E: 26674.588422 0003 0035 3864
E: 26674.588422 0003 0036 5279
E: 26674.588422 0003 003a 39
E: 26674.588422 0003 0030 596
E: 26674.588422 0003 0031 566
E: 26674.588422 0003 0000 3864
E: 26674.588422 0003 0001 5279
E: 26674.588422 0003 0018 39
E: 26674.588422 0000 0000 0
E: 26674.594746 0003 0035 3879
E: 26674.594746 0003 0036 5297
E: 26674.594746 0003 0030 607
E: 26674.594746 0003 0031 570
E: 26674.594746 0003 0000 3879
E: 26674.594746 0003 0001 5297
E: 26674.594746 0000 0000 0
E: 26674.600994 0003 0035 3900
E: 26674.600994 0003 0036 5312
E: 26674.600994 0003 003a 40
E: 26674.600994 0003 0030 612
E: 26674.600994 0003 0031 573
E: 26674.600994 0003 0000 3900
E: 26674.600994 0003 0001 5312
E: 26674.600994 0003 0018 40
E: 26674.600994 0000 0000 0
E: 26674.607364 0003 0035 3929
E: 26674.607364 0003 0036 5324
E: 26674.607364 0003 003a 41
E: 26674.607364 0003 0030 627
E: 26674.607364 0003 0031 576
E: 26674.607364 0003 0000 3929
E: 26674.607364 0003 0001 5324
E: 26674.607364 0003 0018 41
E: 26674.607364 0000 0000 0
E: 26674.613451 0003 0030 628
E: 26674.613451 0003 0031 577
E: 26674.613451 0000 0000 0
E: 26674.620095 0003 0035 3963
E: 26674.620095 0003 0036 5336
E: 26674.620095 0003 0030 630
E: 26674.620095 0003 0031 579
E: 26674.620095 0003 0000 3963
E: 26674.620095 0003 0001 5336
E: 26674.620095 0000 0000 0
E: 26674.625620 0003 0035 3996
E: 26674.625620 0003 0036 5349
E: 26674.625620 0003 003a 42
E: 26674.625620 0003 0030 641
E: 26674.625620 0003 0000 3996
E: 26674.625620 0003 0001 5349
E: 26674.625620 0003 0018 42
E: 26674.625620 0000 0000 0
E: 26674.632459 0003 0035 4017
E: 26674.632459 0003 0036 5359
E: 26674.632459 0003 003a 43
E: 26674.632459 0003 0030 645
E: 26674.632459 0003 0031 582
E: 26674.632459 0003 0000 4017
E: 26674.632459 0003 0001 5359
E: 26674.632459 0003 0018 43
E: 26674.632459 0000 0000 0
E: 26674.639203 0003 0035 4042
E: 26674.639203 0003 0036 5370
E: 26674.639203 0003 0030 651
E: 26674.639203 0003 0031 581
E: 26674.639203 0003 0000 4042
E: 26674.639203 0003 0001 5370
E: 26674.639203 0000 0000 0
E: 26674.646026 0003 0035 4060
E: 26674.646026 0003 0036 5380
E: 26674.646026 0003 0030 656
E: 26674.646026 0003 0031 580
E: 26674.646026 0003 0000 4060
E: 26674.646026 0003 0001 5380
E: 26674.646026 0000 0000 0
E: 26674.652840 0003 0035 4081
E: 26674.652840 0003 0036 5391
E: 26674.652840 0003 003a 44
E: 26674.652840 0003 0030 660
E: 26674.652840 0003 0031 584
E: 26674.652840 0003 0000 4081
E: 26674.652840 0003 0001 5391
E: 26674.652840 0003 0018 44
E: 26674.652840 0000 0000 0
E: 26674.659301 0003 0035 4104
E: 26674.659301 0003 0036 5398
E: 26674.659301 0003 003a 46
E: 26674.659301 0003 0030 671
E: 26674.659301 0003 0031 591
E: 26674.659301 0003 0000 4104
E: 26674.659301 0003 0001 5398
E: 26674.659301 0003 0018 46
E: 26674.659301 0000 0000 0
E: 26674.666106 0003 0035 4123
E: 26674.666106 0003 0036 5405
E: 26674.666106 0003 0030 673
E: 26674.666106 0003 0031 589
E: 26674.666106 0003 0000 4123
E: 26674.666106 0003 0001 5405
E: 26674.666106 0000 0000 0
E: 26674.673070 0003 0035 4148
E: 26674.673070 0003 0030 675
E: 26674.673070 0003 0000 4148
E: 26674.673070 0000 0000 0
E: 26674.680098 0003 0035 4178
E: 26674.680098 0003 0036 5400
E: 26674.680098 0003 003a 47
E: 26674.680098 0003 0030 678
E: 26674.680098 0003 0031 592
E: 26674.680098 0003 0000 4178
E: 26674.680098 0003 0001 5400
E: 26674.680098 0003 0018 47
E: 26674.680098 0000 0000 0
E: 26674.686997 0003 0035 4206
E: 26674.686997 0003 0036 5390
E: 26674.686997 0003 0030 682
E: 26674.686997 0003 0031 594
E: 26674.686997 0003 0000 4206
E: 26674.686997 0003 0001 5390
E: 26674.686997 0000 0000 0
E: 26674.693691 0003 0035 4244
E: 26674.693691 0003 0036 5380
E: 26674.693691 0003 003a 48
E: 26674.693691 0003 0030 686
E: 26674.693691 0003 0031 598
E: 26674.693691 0003 0000 4244
E: 26674.693691 0003 0001 5380
E: 26674.693691 0003 0018 48
E: 26674.693691 0000 0000 0
E: 26674.700802 0003 0035 4278
E: 26674.700802 0003 0036 5364
E: 26674.700802 0003 0030 689
E: 26674.700802 0003 0031 595
E: 26674.700802 0003 0000 4278
E: 26674.700802 0003 0001 5364
E: 26674.700802 0000 0000 0
E: 26674.707981 0003 0035 4316
E: 26674.707981 0003 0036 5347
E: 26674.707981 0003 0030 690
E: 26674.707981 0003 0031 598
E: 26674.707981 0003 0000 4316
E: 26674.707981 0003 0001 5347
E: 26674.707981 0000 0000 0
E: 26674.714950 0003 0035 4349
E: 26674.714950 0003 0036 5332
E: 26674.714950 0003 003a 49
E: 26674.714950 0003 0030 694
E: 26674.714950 0003 0000 4349
E: 26674.714950 0003 0001 5332
E: 26674.714950 0003 0018 49
E: 26674.714950 0000 0000 0
E: 26674.721784 0003 0035 4385
E: 26674.721784 0003 0036 5316
E: 26674.721784 0003 0030 699
E: 26674.721784 0003 0031 599
E: 26674.721784 0003 0000 4385
E: 26674.721784 0003 0001 5316
E: 26674.721784 0000 0000 0
E: 26674.728728 0003 0035 4416
E: 26674.728728 0003 0036 5304
E: 26674.728728 0003 003a 50
E: 26674.728728 0003 0030 703
E: 26674.728728 0003 0031 603
E: 26674.728728 0003 0000 4416
E: 26674.728728 0003 0001 5304
E: 26674.728728 0003 0018 50
E: 26674.728728 0000 0000 0
E: 26674.735895 0003 0035 4445
E: 26674.735895 0003 0036 5297
E: 26674.735895 0003 0030 708
E: 26674.735895 0003 0031 601
E: 26674.735895 0003 0000 4445
E: 26674.735895 0003 0001 5297
E: 26674.735895 0000 0000 0
E: 26674.742404 0003 0035 4468
E: 26674.742404 0003 0036 5289
E: 26674.742404 0003 0030 710
E: 26674.742404 0003 0031 600
E: 26674.742404 0003 0000 4468
E: 26674.742404 0003 0001 5289
E: 26674.742404 0000 0000 0
E: 26674.749477 0003 0035 4489
E: 26674.749477 0003 0036 5281
E: 26674.749477 0003 003a 51
E: 26674.749477 0003 0030 713
E: 26674.749477 0003 0031 601
E: 26674.749477 0003 0000 4489
E: 26674.749477 0003 0001 5281
E: 26674.749477 0003 0018 51
E: 26674.749477 0000 0000 0
E: 26674.756496 0003 0035 4513
E: 26674.756496 0003 0036 5278
E: 26674.756496 0003 003a 50
E: 26674.756496 0003 0030 714
E: 26674.756496 0003 0031 599
E: 26674.756496 0003 0000 4513
E: 26674.756496 0003 0001 5278
E: 26674.756496 0003 0018 50
E: 26674.756496 0000 0000 0
E: 26674.763611 0003 0035 4536
E: 26674.763611 0003 0036 5277
E: 26674.763611 0003 003a 51
E: 26674.763611 0003 0030 718
E: 26674.763611 0003 0031 601
E: 26674.763611 0003 0000 4536
E: 26674.763611 0003 0001 5277
E: 26674.763611 0003 0018 51
E: 26674.763611 0000 0000 0
E: 26674.770863 0003 0035 4554
E: 26674.770863 0003 0036 5272
E: 26674.770863 0003 0031 600
E: 26674.770863 0003 0000 4554
E: 26674.770863 0003 0001 5272
E: 26674.770863 0000 0000 0
E: 26674.777979 0003 0035 4578
E: 26674.777979 0003 0036 5269
E: 26674.777979 0003 0030 715
E: 26674.777979 0003 0031 599
E: 26674.777979 0003 0000 4578
E: 26674.777979 0003 0001 5269
E: 26674.777979 0000 0000 0
E: 26674.786384 0003 0035 4594
E: 26674.786384 0003 0036 5262
E: 26674.786384 0003 0030 716
E: 26674.786384 0003 0000 4594
E: 26674.786384 0003 0001 5262
E: 26674.786384 0000 0000 0
E: 26674.793189 0003 0035 4612
E: 26674.793189 0003 0036 5250
E: 26674.793189 0003 0030 717
E: 26674.793189 0003 0000 4612
E: 26674.793189 0003 0001 5250
E: 26674.793189 0000 0000 0
E: 26674.800248 0003 0035 4644
E: 26674.800248 0003 0036 5244
E: 26674.800248 0003 0030 718
E: 26674.800248 0003 0031 601
E: 26674.800248 0003 0000 4644
E: 26674.800248 0003 0001 5244
E: 26674.800248 0000 0000 0
E: 26674.807303 0003 0035 4670
E: 26674.807303 0003 0036 5226
E: 26674.807303 0003 0000 4670
E: 26674.807303 0003 0001 5226
E: 26674.807303 0000 0000 0
E: 26674.815106 0003 0035 4699
E: 26674.815106 0003 0036 5208
E: 26674.815106 0003 003a 52
E: 26674.815106 0003 0030 722
E: 26674.815106 0003 0031 607
E: 26674.815106 0003 0000 4699
E: 26674.815106 0003 0001 5208
E: 26674.815106 0003 0018 52
E: 26674.815106 0000 0000 0
E: 26674.821582 0003 0035 4735
E: 26674.821582 0003 0036 5186
E: 26674.821582 0003 0030 725
E: 26674.821582 0003 0031 608
E: 26674.821582 0003 0000 4735
E: 26674.821582 0003 0001 5186
E: 26674.821582 0000 0000 0
E: 26674.829105 0003 0035 4765
E: 26674.829105 0003 0036 5167
E: 26674.829105 0003 0030 729
E: 26674.829105 0003 0031 611
E: 26674.829105 0003 0000 4765
E: 26674.829105 0003 0001 5167
E: 26674.829105 0000 0000 0
E: 26674.835609 0003 0030 728
E: 26674.835609 0000 0000 0
E: 26674.843113 0003 0035 4840
E: 26674.843113 0003 0036 5128
E: 26674.843113 0003 0030 730
E: 26674.843113 0003 0031 615
E: 26674.843113 0003 0000 4840
E: 26674.843113 0003 0001 5128
E: 26674.843113 0000 0000 0
E: 26674.850623 0003 0035 4901
E: 26674.850623 0003 0036 5095
E: 26674.850623 0003 0030 733
E: 26674.850623 0003 0031 617
E: 26674.850623 0003 0000 4901
E: 26674.850623 0003 0001 5095
E: 26674.850623 0000 0000 0
E: 26674.857743 0003 0035 4942
E: 26674.857743 0003 0036 5083
E: 26674.857743 0003 0030 736
E: 26674.857743 0003 0031 616
E: 26674.857743 0003 0000 4942
E: 26674.857743 0003 0001 5083
E: 26674.857743 0000 0000 0
E: 26674.865039 0003 0035 4970
E: 26674.865039 0003 0036 5063
E: 26674.865039 0003 0030 733
E: 26674.865039 0003 0031 617
E: 26674.865039 0003 0000 4970
E: 26674.865039 0003 0001 5063
E: 26674.865039 0000 0000 0
E: 26674.872792 0003 0035 5009
E: 26674.872792 0003 0036 5046
E: 26674.872792 0003 003a 53
E: 26674.872792 0003 0030 738
E: 26674.872792 0003 0031 621
E: 26674.872792 0003 0000 5009
E: 26674.872792 0003 0001 5046
E: 26674.872792 0003 0018 53
E: 26674.872792 0000 0000 0
E: 26674.880208 0003 0035 5047
E: 26674.880208 0003 0036 5024
E: 26674.880208 0003 0031 618
E: 26674.880208 0003 0000 5047
E: 26674.880208 0003 0001 5024
E: 26674.880208 0000 0000 0
E: 26674.886907 0003 0035 5079
E: 26674.886907 0003 0036 5004
E: 26674.886907 0003 0030 739
E: 26674.886907 0003 0031 617
E: 26674.886907 0003 0000 5079
E: 26674.886907 0003 0001 5004
E: 26674.886907 0000 0000 0
E: 26674.893643 0003 0035 5116
E: 26674.893643 0003 0036 4988
E: 26674.893643 0003 0031 616
E: 26674.893643 0003 0000 5116
E: 26674.893643 0003 0001 4988
E: 26674.893643 0000 0000 0
E: 26674.900653 0003 0035 5150
E: 26674.900653 0003 0036 4966
E: 26674.900653 0003 0030 742
E: 26674.900653 0003 0031 615
E: 26674.900653 0003 0000 5150
E: 26674.900653 0003 0001 4966
E: 26674.900653 0000 0000 0
E: 26674.907415 0003 0035 5183
E: 26674.907415 0003 0036 4942
E: 26674.907415 0003 0030 741
E: 26674.907415 0003 0031 614
E: 26674.907415 0003 0000 5183
E: 26674.907415 0003 0001 4942
E: 26674.907415 0000 0000 0
E: 26674.914316 0003 0035 5215
E: 26674.914316 0003 0036 4919
E: 26674.914316 0003 003a 54
E: 26674.914316 0003 0030 743
E: 26674.914316 0003 0031 616
E: 26674.914316 0003 0000 5215
E: 26674.914316 0003 0001 4919
E: 26674.914316 0003 0018 54
E: 26674.914316 0000 0000 0
E: 26674.921292 0003 0035 5257
E: 26674.921292 0003 0036 4899
E: 26674.921292 0003 0030 741
E: 26674.921292 0003 0031 614
E: 26674.921292 0003 0000 5257
E: 26674.921292 0003 0001 4899
E: 26674.921292 0000 0000 0
E: 26674.928345 0003 0035 5292
E: 26674.928345 0003 0036 4879
E: 26674.928345 0003 0000 5292
E: 26674.928345 0003 0001 4879
E: 26674.928345 0000 0000 0
E: 26674.935641 0003 0035 5322
E: 26674.935641 0003 0036 4860
E: 26674.935641 0003 0030 743
E: 26674.935641 0003 0031 615
E: 26674.935641 0003 0000 5322
E: 26674.935641 0003 0001 4860
E: 26674.935641 0000 0000 0
E: 26674.942669 0003 0035 5358
E: 26674.942669 0003 0036 4846
E: 26674.942669 0003 0031 616
E: 26674.942669 0003 0000 5358
E: 26674.942669 0003 0001 4846
E: 26674.942669 0000 0000 0
E: 26674.949384 0003 0035 5389
E: 26674.949384 0003 0036 4828
E: 26674.949384 0003 0031 615
E: 26674.949384 0003 0000 5389
E: 26674.949384 0003 0001 4828
E: 26674.949384 0000 0000 0
E: 26674.956952 0003 0035 5421
E: 26674.956952 0003 0036 4811
E: 26674.956952 0003 0030 745
E: 26674.956952 0003 0031 617
E: 26674.956952 0003 0000 5421
E: 26674.956952 0003 0001 4811
E: 26674.956952 0000 0000 0
E: 26674.964303 0003 0035 5457
E: 26674.964303 0003 0036 4797
E: 26674.964303 0003 0030 744
E: 26674.964303 0003 0031 616
E: 26674.964303 0003 0000 5457
E: 26674.964303 0003 0001 4797
E: 26674.964303 0000 0000 0
E: 26674.971402 0003 0035 5494
E: 26674.971402 0003 0036 4780
E: 26674.971402 0003 0030 745
E: 26674.971402 0003 0031 615
E: 26674.971402 0003 0000 5494
E: 26674.971402 0003 0001 4780
E: 26674.971402 0000 0000 0
E: 26674.978523 0003 0035 5533
E: 26674.978523 0003 0036 4764
E: 26674.978523 0003 0030 744
E: 26674.978523 0003 0031 614
E: 26674.978523 0003 0000 5533
E: 26674.978523 0003 0001 4764
E: 26674.978523 0000 0000 0
E: 26674.985706 0003 0035 5573
E: 26674.985706 0003 0036 4748
E: 26674.985706 0003 0030 745
E: 26674.985706 0003 0031 611
E: 26674.985706 0003 0000 5573
E: 26674.985706 0003 0001 4748
E: 26674.985706 0000 0000 0
E: 26674.994383 0003 0035 5606
E: 26674.994383 0003 0036 4732
E: 26674.994383 0003 0030 742
E: 26674.994383 0003 0031 609
E: 26674.994383 0003 0000 5606
E: 26674.994383 0003 0001 4732
E: 26674.994383 0000 0000 0
E: 26674.999594 0003 0035 5644
E: 26674.999594 0003 0036 4714
E: 26674.999594 0003 003a 55
E: 26674.999594 0003 0030 746
E: 26674.999594 0003 0031 611
E: 26674.999594 0003 0000 5644
E: 26674.999594 0003 0001 4714
E: 26674.999594 0003 0018 55
E: 26674.999594 0000 0000 0
E: 26675.008050 0003 0035 5685
E: 26675.008050 0003 0036 4698
E: 26675.008050 0003 003a 54
E: 26675.008050 0003 0030 742
E: 26675.008050 0003 0031 607
E: 26675.008050 0003 0000 5685
E: 26675.008050 0003 0001 4698
E: 26675.008050 0003 0018 54
E: 26675.008050 0000 0000 0
E: 26675.014946 0003 0035 5721
E: 26675.014946 0003 0036 4680
E: 26675.014946 0003 0030 741
E: 26675.014946 0003 0031 604
E: 26675.014946 0003 0000 5721
E: 26675.014946 0003 0001 4680
E: 26675.014946 0000 0000 0
E: 26675.021634 0003 0035 5763
E: 26675.021634 0003 0036 4665
E: 26675.021634 0003 003a 55
E: 26675.021634 0003 0030 746
E: 26675.021634 0003 0031 610
E: 26675.021634 0003 0000 5763
E: 26675.021634 0003 0001 4665
E: 26675.021634 0003 0018 55
E: 26675.021634 0000 0000 0
E: 26675.028756 0003 0035 5798
E: 26675.028756 0003 0036 4650
E: 26675.028756 0003 0030 742
E: 26675.028756 0003 0000 5798
E: 26675.028756 0003 0001 4650
E: 26675.028756 0000 0000 0
E: 26675.036406 0003 0035 5841
E: 26675.036406 0003 0036 4640
E: 26675.036406 0003 0031 611
E: 26675.036406 0003 0000 5841
E: 26675.036406 0003 0001 4640
E: 26675.036406 0000 0000 0
E: 26675.042901 0003 0035 5878
E: 26675.042901 0003 0036 4625
E: 26675.042901 0003 0030 745
E: 26675.042901 0003 0031 614
E: 26675.042901 0003 0000 5878
E: 26675.042901 0003 0001 4625
E: 26675.042901 0000 0000 0
E: 26675.050475 0003 0035 5916
E: 26675.050475 0003 0036 4614
E: 26675.050475 0003 0030 747
E: 26675.050475 0003 0031 617
E: 26675.050475 0003 0000 5916
E: 26675.050475 0003 0001 4614
E: 26675.050475 0000 0000 0
E: 26675.064997 0003 0035 6001
E: 26675.064997 0003 0036 4591
E: 26675.064997 0003 0031 620
E: 26675.064997 0003 0000 6001
E: 26675.064997 0003 0001 4591
E: 26675.064997 0000 0000 0
E: 26675.072764 0003 0035 6082
E: 26675.072764 0003 0036 4569
E: 26675.072764 0003 0030 749
E: 26675.072764 0003 0031 619
E: 26675.072764 0003 0000 6082
E: 26675.072764 0003 0001 4569
E: 26675.072764 0000 0000 0
E: 26675.079939 0003 0035 6128
E: 26675.079939 0003 0036 4558
E: 26675.079939 0003 0030 750
E: 26675.079939 0003 0000 6128
E: 26675.079939 0003 0001 4558
E: 26675.079939 0000 0000 0
E: 26675.087427 0003 0035 6168
E: 26675.087427 0003 0036 4546
E: 26675.087427 0003 0030 747
E: 26675.087427 0003 0031 618
E: 26675.087427 0003 0000 6168
E: 26675.087427 0003 0001 4546
E: 26675.087427 0000 0000 0
E: 26675.095023 0003 0035 6211
E: 26675.095023 0003 0036 4535
E: 26675.095023 0003 0030 748
E: 26675.095023 0003 0031 616
E: 26675.095023 0003 0000 6211
E: 26675.095023 0003 0001 4535
E: 26675.095023 0000 0000 0
E: 26675.102468 0003 0035 6246
E: 26675.102468 0003 0036 4521
E: 26675.102468 0003 0030 750
E: 26675.102468 0003 0031 615
E: 26675.102468 0003 0000 6246
E: 26675.102468 0003 0001 4521
E: 26675.102468 0000 0000 0
E: 26675.109925 0003 0035 6285
E: 26675.109925 0003 0036 4507
E: 26675.109925 0003 0030 749
E: 26675.109925 0003 0031 616
E: 26675.109925 0003 0000 6285
E: 26675.109925 0003 0001 4507
E: 26675.109925 0000 0000 0
E: 26675.118672 0003 0035 6324
E: 26675.118672 0003 0036 4497
E: 26675.118672 0003 0030 751
E: 26675.118672 0003 0031 617
E: 26675.118672 0003 0000 6324
E: 26675.118672 0003 0001 4497
E: 26675.118672 0000 0000 0
E: 26675.126293 0003 0035 6361
E: 26675.126293 0003 0036 4485
E: 26675.126293 0003 0030 752
E: 26675.126293 0003 0031 616
E: 26675.126293 0003 0000 6361
E: 26675.126293 0003 0001 4485
E: 26675.126293 0000 0000 0
E: 26675.133045 0003 0035 6391
E: 26675.133045 0003 0036 4474
E: 26675.133045 0003 003a 54
E: 26675.133045 0003 0030 751
E: 26675.133045 0003 0031 617
E: 26675.133045 0003 0000 6391
E: 26675.133045 0003 0001 4474
E: 26675.133045 0003 0018 54
E: 26675.133045 0000 0000 0
E: 26675.140457 0003 0035 6422
E: 26675.140457 0003 0036 4461
E: 26675.140457 0003 0030 752
E: 26675.140457 0003 0031 618
E: 26675.140457 0003 0000 6422
E: 26675.140457 0003 0001 4461
E: 26675.140457 0000 0000 0
E: 26675.147056 0003 0030 753
E: 26675.147056 0000 0000 0
E: 26675.154963 0003 0035 6487
E: 26675.154963 0003 0036 4441
E: 26675.154963 0003 003a 55
E: 26675.154963 0003 0030 755
E: 26675.154963 0003 0031 625
E: 26675.154963 0003 0000 6487
E: 26675.154963 0003 0001 4441
E: 26675.154963 0003 0018 55
E: 26675.154963 0000 0000 0
E: 26675.162472 0003 0035 6557
E: 26675.162472 0003 0036 4418
E: 26675.162472 0003 0030 754
E: 26675.162472 0003 0000 6557
E: 26675.162472 0003 0001 4418
E: 26675.162472 0000 0000 0
E: 26675.169833 0003 0035 6585
E: 26675.169833 0003 0036 4401
E: 26675.169833 0003 0030 756
E: 26675.169833 0003 0031 623
E: 26675.169833 0003 0000 6585
E: 26675.169833 0003 0001 4401
E: 26675.169833 0000 0000 0
E: 26675.177584 0003 0035 6620
E: 26675.177584 0003 0036 4387
E: 26675.177584 0003 003a 54
E: 26675.177584 0003 0030 754
E: 26675.177584 0003 0000 6620
E: 26675.177584 0003 0001 4387
E: 26675.177584 0003 0018 54
E: 26675.177584 0000 0000 0
E: 26675.184709 0003 0035 6656
E: 26675.184709 0003 0036 4374
E: 26675.184709 0003 0030 755
E: 26675.184709 0003 0031 624
E: 26675.184709 0003 0000 6656
E: 26675.184709 0003 0001 4374
E: 26675.184709 0000 0000 0
E: 26675.191413 0003 0035 6689
E: 26675.191413 0003 0036 4364
E: 26675.191413 0003 0000 6689
E: 26675.191413 0003 0001 4364
E: 26675.191413 0000 0000 0
E: 26675.198375 0003 0035 6718
E: 26675.198375 0003 0036 4350
E: 26675.198375 0003 0031 622
E: 26675.198375 0003 0000 6718
E: 26675.198375 0003 0001 4350
E: 26675.198375 0000 0000 0
E: 26675.205132 0003 0035 6746
E: 26675.205132 0003 0036 4338
E: 26675.205132 0003 0030 756
E: 26675.205132 0003 0031 620
E: 26675.205132 0003 0000 6746
E: 26675.205132 0003 0001 4338
E: 26675.205132 0000 0000 0
E: 26675.212055 0003 0035 6776
E: 26675.212055 0003 0036 4327
E: 26675.212055 0003 0030 757
E: 26675.212055 0003 0000 6776
E: 26675.212055 0003 0001 4327
E: 26675.212055 0000 0000 0
E: 26675.219118 0003 0035 6804
E: 26675.219118 0003 0036 4317
E: 26675.219118 0003 0030 756
E: 26675.219118 0003 0031 619
E: 26675.219118 0003 0000 6804
E: 26675.219118 0003 0001 4317
E: 26675.219118 0000 0000 0
E: 26675.225904 0003 0035 6825
E: 26675.225904 0003 0036 4308
E: 26675.225904 0003 0030 753
E: 26675.225904 0003 0031 618
E: 26675.225904 0003 0000 6825
E: 26675.225904 0003 0001 4308
E: 26675.225904 0000 0000 0
E: 26675.232783 0003 0035 6850
E: 26675.232783 0003 0036 4301
E: 26675.232783 0003 0030 754
E: 26675.232783 0003 0031 616
E: 26675.232783 0003 0000 6850
E: 26675.232783 0003 0001 4301
E: 26675.232783 0000 0000 0
E: 26675.239507 0003 0035 6872
E: 26675.239507 0003 0036 4293
E: 26675.239507 0003 0030 753
E: 26675.239507 0003 0000 6872
E: 26675.239507 0003 0001 4293
E: 26675.239507 0000 0000 0
E: 26675.246370 0003 0035 6894
E: 26675.246370 0003 0036 4285
E: 26675.246370 0003 0030 754
E: 26675.246370 0003 0031 615
E: 26675.246370 0003 0000 6894
E: 26675.246370 0003 0001 4285
E: 26675.246370 0000 0000 0
E: 26675.253451 0003 0035 6917
E: 26675.253451 0003 0036 4276
E: 26675.253451 0003 0030 758
E: 26675.253451 0003 0031 616
E: 26675.253451 0003 0000 6917
E: 26675.253451 0003 0001 4276
E: 26675.253451 0000 0000 0
E: 26675.260478 0003 0035 6939
E: 26675.260478 0003 0036 4263
E: 26675.260478 0003 0030 756
E: 26675.260478 0003 0000 6939
E: 26675.260478 0003 0001 4263
E: 26675.260478 0000 0000 0
E: 26675.267534 0003 0035 6967
E: 26675.267534 0003 0036 4252
E: 26675.267534 0003 0031 617
E: 26675.267534 0003 0000 6967
E: 26675.267534 0003 0001 4252
E: 26675.267534 0000 0000 0
E: 26675.274731 0003 0035 6995
E: 26675.274731 0003 0036 4232
E: 26675.274731 0003 003a 53
E: 26675.274731 0003 0030 753
E: 26675.274731 0003 0031 614
E: 26675.274731 0003 0000 6995
E: 26675.274731 0003 0001 4232
E: 26675.274731 0003 0018 53
E: 26675.274731 0000 0000 0
E: 26675.281773 0003 0035 7029
E: 26675.281773 0003 0036 4215
E: 26675.281773 0003 0030 752
E: 26675.281773 0003 0031 618
E: 26675.281773 0003 0000 7029
E: 26675.281773 0003 0001 4215
E: 26675.281773 0000 0000 0
E: 26675.289363 0003 0035 7061
E: 26675.289363 0003 0036 4197
E: 26675.289363 0003 0030 755
E: 26675.289363 0003 0000 7061
E: 26675.289363 0003 0001 4197
E: 26675.289363 0000 0000 0
E: 26675.296547 0003 0035 7093
E: 26675.296547 0003 0036 4183
E: 26675.296547 0003 003a 54
E: 26675.296547 0003 0030 754
E: 26675.296547 0003 0031 620
E: 26675.296547 0003 0000 7093
E: 26675.296547 0003 0001 4183
E: 26675.296547 0003 0018 54
E: 26675.296547 0000 0000 0
E: 26675.304049 0003 0035 7123
E: 26675.304049 0003 0036 4172
E: 26675.304049 0003 003a 53
E: 26675.304049 0003 0031 619
E: 26675.304049 0003 0000 7123
E: 26675.304049 0003 0001 4172
E: 26675.304049 0003 0018 53
E: 26675.304049 0000 0000 0
E: 26675.312379 0003 0035 7148
E: 26675.312379 0003 0036 4164
E: 26675.312379 0003 003a 54
E: 26675.312379 0003 0030 757
E: 26675.312379 0003 0031 621
E: 26675.312379 0003 0000 7148
E: 26675.312379 0003 0001 4164
E: 26675.312379 0003 0018 54
E: 26675.312379 0000 0000 0
E: 26675.320089 0003 0035 7167
E: 26675.320089 0003 0036 4156
E: 26675.320089 0003 0030 752
E: 26675.320089 0003 0031 618
E: 26675.320089 0003 0000 7167
E: 26675.320089 0003 0001 4156
E: 26675.320089 0000 0000 0
E: 26675.327175 0003 0035 7180
E: 26675.327175 0003 0036 4151
E: 26675.327175 0003 0000 7180
E: 26675.327175 0003 0001 4151
E: 26675.327175 0000 0000 0
E: 26675.333851 0003 0035 7200
E: 26675.333851 0003 0036 4150
E: 26675.333851 0003 003a 53
E: 26675.333851 0003 0030 750
E: 26675.333851 0003 0000 7200
E: 26675.333851 0003 0001 4150
E: 26675.333851 0003 0018 53
E: 26675.333851 0000 0000 0
E: 26675.340944 0003 0035 7211
E: 26675.340944 0003 0036 4149
E: 26675.340944 0003 003a 54
E: 26675.340944 0003 0030 752
E: 26675.340944 0003 0000 7211
E: 26675.340944 0003 0001 4149
E: 26675.340944 0003 0018 54
E: 26675.340944 0000 0000 0
E: 26675.354146 0003 0035 7230
E: 26675.354146 0003 0036 4146
E: 26675.354146 0003 0000 7230
E: 26675.354146 0003 0001 4146
E: 26675.354146 0000 0000 0
E: 26675.359568 0003 0030 751
E: 26675.359568 0000 0000 0
E: 26675.367769 0003 0035 7240
E: 26675.367769 0003 0036 4143
E: 26675.367769 0003 0031 619
E: 26675.367769 0003 0000 7240
E: 26675.367769 0003 0001 4143
E: 26675.367769 0000 0000 0
E: 26675.374868 0003 0035 7245
E: 26675.374868 0003 0036 4140
E: 26675.374868 0003 0030 750
E: 26675.374868 0003 0031 618
E: 26675.374868 0003 0000 7245
E: 26675.374868 0003 0001 4140
E: 26675.374868 0000 0000 0
E: 26675.381755 0003 0035 7252
E: 26675.381755 0003 0036 4139
E: 26675.381755 0003 0030 752
E: 26675.381755 0003 0000 7252
E: 26675.381755 0003 0001 4139
E: 26675.381755 0000 0000 0
E: 26675.388868 0003 0035 7260
E: 26675.388868 0003 0036 4138
E: 26675.388868 0003 0030 751
E: 26675.388868 0003 0031 616
E: 26675.388868 0003 0000 7260
E: 26675.388868 0003 0001 4138
E: 26675.388868 0000 0000 0
E: 26675.396104 0003 0035 7264
E: 26675.396104 0003 0036 4133
E: 26675.396104 0003 0030 747
E: 26675.396104 0003 0031 615
E: 26675.396104 0003 0000 7264
E: 26675.396104 0003 0001 4133
E: 26675.396104 0000 0000 0
E: 26675.403186 0003 0035 7265
E: 26675.403186 0003 0036 4128
E: 26675.403186 0003 0030 745
E: 26675.403186 0003 0000 7265
E: 26675.403186 0003 0001 4128
E: 26675.403186 0000 0000 0
E: 26675.410205 0003 0035 7271
E: 26675.410205 0003 0036 4124
E: 26675.410205 0003 003a 53
E: 26675.410205 0003 0030 742
E: 26675.410205 0003 0031 614
E: 26675.410205 0003 0000 7271
E: 26675.410205 0003 0001 4124
E: 26675.410205 0003 0018 53
E: 26675.410205 0000 0000 0
E: 26675.417300 0003 0035 7279
E: 26675.417300 0003 0036 4120
E: 26675.417300 0003 0030 739
E: 26675.417300 0003 0031 615
E: 26675.417300 0003 0000 7279
E: 26675.417300 0003 0001 4120
E: 26675.417300 0000 0000 0
E: 26675.424283 0003 0035 7282
E: 26675.424283 0003 0036 4110
E: 26675.424283 0003 003a 52
E: 26675.424283 0003 0030 734
E: 26675.424283 0003 0031 612
E: 26675.424283 0003 0000 7282
E: 26675.424283 0003 0001 4110
E: 26675.424283 0003 0018 52
E: 26675.424283 0000 0000 0
E: 26675.424783 0003 002f 0
E: 26675.424783 0003 0039 -1
E: 26675.424783 0003 002f 1
E: 26675.424783 0003 0039 -1
E: 26675.424783 0003 002f 2
E: 26675.424783 0003 0039 -1
E: 26675.424783 0003 002f 3
E: 26675.424783 0003 0039 -1
E: 26675.424783 0003 002f 4
E: 26675.424783 0003 0039 -1
E: 26675.424783 0003 002f 5
E: 26675.424783 0003 0039 -1
E: 26675.424783 0003 002f 6
E: 26675.424783 0003 0039 -1
E: 26675.424783 0003 002f 7
E: 26675.424783 0003 0039 -1
E: 26675.424783 0003 002f 8
E: 26675.424783 0003 0039 -1
E: 26675.424783 0003 002f 9
E: 26675.424783 0003 0039 -1
